<?xml version="1.0" standalone="no"?>
<!DOCTYPE svg PUBLIC "-//W3C//DTD SVG 1.1//EN" "http://www.w3.org/Graphics/SVG/1.1/DTD/svg11.dtd" >
<svg xmlns="http://www.w3.org/2000/svg" xmlns:xlink="http://www.w3.org/1999/xlink" version="1.1">
<metadata>
Created by FontForge 20170731 at Tue Jan  8 05:11:13 2019
 By Aleksey,,,
Copyright 2016 The Muli Project Authors (contact@sansoxygen.com)
</metadata>
<defs>
<font id="Muli-Bold" horiz-adv-x="0" >
  <font-face 
    font-family="Muli"
    font-weight="700"
    font-stretch="normal"
    units-per-em="1000"
    panose-1="0 0 8 0 0 0 0 0 0 0"
    ascent="800"
    descent="-200"
    bbox="-336 -228 783 1036"
    underline-thickness="50"
    underline-position="-150"
    unicode-range="U+0020-20AB"
  />
<missing-glyph horiz-adv-x="476" 
d="M390 736v-952h-301v952h301zM317 672h-157v-31h62v-35h-63v-32h158v32h-63v35h63v31zM254 549h-95v-99h158v33h-63v66zM222 517v-34h-32v34h32zM317 425h-158v-32h63v-35h-63v-31h95v66h63v32zM317 368h-31v-63h-127v-33h158v96zM317 251h-95v-53h32v22h32v-45h-96v76
h-31v-107h158v107zM317 87h-158v-108h158v108zM286 55v-44h-96v44h96zM317 -43h-158v-31h67l-67 -45v-31h158v31h-97l67 45h30v31z" />
    <glyph glyph-name=".notdef" horiz-adv-x="476" 
d="M390 736v-952h-301v952h301zM317 672h-157v-31h62v-35h-63v-32h158v32h-63v35h63v31zM254 549h-95v-99h158v33h-63v66zM222 517v-34h-32v34h32zM317 425h-158v-32h63v-35h-63v-31h95v66h63v32zM317 368h-31v-63h-127v-33h158v96zM317 251h-95v-53h32v22h32v-45h-96v76
h-31v-107h158v107zM317 87h-158v-108h158v108zM286 55v-44h-96v44h96zM317 -43h-158v-31h67l-67 -45v-31h158v31h-97l67 45h30v31z" />
    <glyph glyph-name=".null" 
 />
    <glyph glyph-name="nonmarkingreturn" horiz-adv-x="274" 
 />
    <glyph glyph-name="NULL" 
 />
    <glyph glyph-name="space" unicode=" " horiz-adv-x="274" 
 />
    <glyph glyph-name="hyphen" unicode="-" horiz-adv-x="438" 
d="M69 220v100h301v-100h-301z" />
    <glyph glyph-name="eight" unicode="8" horiz-adv-x="600" 
d="M528 303q39 -46 39 -111q0 -61 -33.5 -106.5t-94 -69.5t-139.5 -24t-139.5 24t-94 69.5t-33.5 106.5q0 65 39 111t108 63q-60 20 -94.5 63t-34.5 100q0 58 32 101.5t88.5 67t128.5 23.5t128.5 -23.5t88.5 -67t32 -101.5t-34.5 -101.5t-94.5 -61.5q69 -17 108 -63z
M207 593q-34 -27 -34 -77q0 -47 34.5 -76.5t92.5 -38.5q58 9 92.5 38.5t34.5 76.5q0 50 -34 77t-93 27t-93 -27zM406.5 121q38.5 28 38.5 80q0 49 -39.5 79t-105.5 39q-66 -9 -105.5 -39t-39.5 -79q0 -52 38.5 -80t106.5 -28t106.5 28z" />
    <glyph glyph-name="A" horiz-adv-x="750" 
d="M621 0l-71 167h-348l-72 -167h-130l322 712h105l323 -712h-129zM245 267h262l-131 305z" />
    <glyph glyph-name="E" horiz-adv-x="595" 
d="M77 0v712h476v-102h-350v-197h329v-102h-329v-209h350v-102h-476z" />
    <glyph glyph-name="F" unicode="F" horiz-adv-x="572" 
d="M77 0v712h465v-103h-337v-195h317v-104h-317v-310h-128z" />
    <glyph glyph-name="I" horiz-adv-x="283" 
d="M77 0v712h129v-712h-129z" />
    <glyph glyph-name="O" horiz-adv-x="786" 
d="M213.5 35.5q-76.5 44.5 -118 127t-41.5 194.5q0 111 41 193.5t117.5 126.5t180.5 44t180.5 -44t117 -126.5t40.5 -193.5q0 -112 -41 -194.5t-117 -127t-180 -44.5q-103 0 -179.5 44.5zM547 162q55 68 55 195q0 126 -55 193.5t-154 67.5t-154 -67t-55 -194t55 -195
t154 -68t154 68z" />
    <glyph glyph-name="T" unicode="T" horiz-adv-x="619" 
d="M244 0v606h-232v106h595v-106h-233v-606h-130z" />
    <glyph glyph-name="U" unicode="U" horiz-adv-x="740" 
d="M148.5 66.5q-75.5 75.5 -75.5 221.5v424h127v-431q0 -92 43 -139.5t128 -47.5q83 0 126.5 48t43.5 139v431h127v-424q0 -145 -76 -221t-221 -76q-147 0 -222.5 75.5z" />
    <glyph glyph-name="Y" horiz-adv-x="629" 
d="M668 712l-289 -430v-282h-129v282l-289 430h147l206 -322l207 322h147z" />
    <glyph glyph-name="a" horiz-adv-x="619" 
d="M551 505v-505h-123v81q-23 -42 -66 -65.5t-98 -23.5q-66 0 -117 32t-79 91t-28 137t28.5 138.5t79.5 94t116 33.5q55 0 98 -23.5t66 -65.5v76h123zM394 133q34 43 34 121q0 80 -34 123t-97 43q-62 0 -96.5 -44.5t-34.5 -123.5q0 -78 34.5 -120t97.5 -42q62 0 96 43z" />
    <glyph glyph-name="e" horiz-adv-x="548" 
d="M510 246h-348q4 -81 40.5 -119.5t108.5 -38.5q83 0 154 54l36 -86q-36 -29 -88.5 -46.5t-106.5 -17.5q-124 0 -195 70t-71 192q0 77 31 137t87 93.5t127 33.5q104 0 164.5 -67.5t60.5 -185.5v-19zM206.5 398.5q-31.5 -29.5 -40.5 -85.5h235q-6 57 -34.5 86t-78.5 29
t-81.5 -29.5z" />
    <glyph glyph-name="o" horiz-adv-x="592" 
d="M161.5 24q-58.5 32 -90 91.5t-31.5 139.5t31.5 139.5t90 91.5t135.5 32q76 0 134 -32t89.5 -91.5t31.5 -139.5t-31.5 -139.5t-89.5 -91.5t-134 -32q-77 0 -135.5 32zM393.5 131.5q33.5 41.5 33.5 123.5q0 81 -34 123.5t-96 42.5q-63 0 -97 -42.5t-34 -123.5
q0 -82 33.5 -123.5t96.5 -41.5q64 0 97.5 41.5z" />
    <glyph glyph-name="u" horiz-adv-x="596" 
d="M528 505v-505h-122v78q-24 -42 -64 -64t-92 -22q-185 0 -185 208v305h124v-306q0 -55 22.5 -81t69.5 -26q55 0 88 36t33 96v281h126z" />
    <glyph glyph-name="y" horiz-adv-x="543" 
d="M546 505l-235 -539q-40 -94 -102 -137t-153 -57l-28 96q71 16 106.5 40.5t57.5 72.5l16 37l-210 487h131l145 -363l148 363h124z" />
    <glyph glyph-name="Abreve" unicode="&#x102;" horiz-adv-x="750" 
d="M621 0l-71 167h-348l-72 -167h-130l322 712h105l323 -712h-129zM245 267h262l-131 305zM267 810q-46 27 -66 82l62 27q20 -32 47.5 -45t64.5 -13q36 0 63.5 13t47.5 45l62 -27q-20 -54 -65.5 -81.5t-107.5 -27.5t-108 27z" />
    <glyph glyph-name="abreve" unicode="&#x103;" horiz-adv-x="619" 
d="M551 505v-505h-123v81q-23 -42 -66 -65.5t-98 -23.5q-66 0 -117 32t-79 91t-28 137t28.5 138.5t79.5 94t116 33.5q55 0 98 -23.5t66 -65.5v76h123zM394 133q34 43 34 121q0 80 -34 123t-97 43q-62 0 -96.5 -44.5t-34.5 -123.5q0 -78 34.5 -120t97.5 -42q62 0 96 43z
M197.5 630.5q-49.5 34.5 -68.5 103.5l63 28q43 -84 117 -84q73 0 116 84l63 -27q-19 -69 -68 -104t-111 -35t-111.5 34.5z" />
    <glyph glyph-name="dotlessi" horiz-adv-x="261" 
d="M68 0v505h124v-505h-124z" />
    <glyph glyph-name="Ohorn" horiz-adv-x="786" 
d="M698.5 700.5q-32.5 -40.5 -89.5 -50.5q60 -46 91 -120.5t31 -172.5q0 -112 -41 -194.5t-117 -127t-180 -44.5q-103 0 -179.5 44.5t-118 127t-41.5 194.5q0 111 41.5 193.5t118.5 126.5t182 44q32 0 69 -5q40 -4 61 -4q53 0 75 24t22 82v18h108v-34q0 -61 -32.5 -101.5z
M547 162q55 68 55 195q0 126 -55 193.5t-154 67.5t-154 -67t-55 -194t55 -195t154 -68t154 68z" />
    <glyph glyph-name="ohorn" horiz-adv-x="592" 
d="M542.5 509q-25.5 -39 -71.5 -55q40 -34 60.5 -85t20.5 -115q0 -79 -31.5 -138.5t-89.5 -91.5t-134 -32q-77 0 -135.5 32t-90 91.5t-31.5 138.5q0 80 31.5 139.5t89 92t133.5 32.5q13 0 56 -5q16 -3 25 -3q41 0 63 23.5t22 84.5v18h108v-34q0 -54 -25.5 -93zM393.5 131.5
q33.5 41.5 33.5 123.5q0 81 -34 123.5t-96 42.5q-63 0 -97 -42.5t-34 -123.5q0 -82 33.5 -123.5t96.5 -41.5q64 0 97.5 41.5z" />
    <glyph glyph-name="Uhorn" horiz-adv-x="740" 
d="M783 836v-34q0 -59 -30.5 -99t-84.5 -52v-363q0 -145 -76 -221t-221 -76q-147 0 -222.5 75.5t-75.5 221.5v424h127v-431q0 -92 43 -139.5t128 -47.5q83 0 126.5 48t43.5 139v431h37q53 0 74.5 24t21.5 82v18h109z" />
    <glyph glyph-name="uhorn" horiz-adv-x="616" 
d="M646 636v-34q0 -61 -31.5 -102.5t-86.5 -52.5v-447h-122v78q-24 -42 -64 -64t-92 -22q-185 0 -185 208v305h124v-306q0 -55 22.5 -81t69.5 -26q55 0 88 36t33 96v281h36q53 0 76 26t23 87v18h109z" />
    <glyph glyph-name="gravecomb" 
d="M-189 559l-147 206h128l100 -206h-81z" />
    <glyph glyph-name="acutecomb" 
d="M-108 559h-81l100 206h128z" />
    <glyph glyph-name="uni0302" 
d="M-212 559h-102l126 206h79l126 -206h-102l-63 128z" />
    <glyph glyph-name="tildecomb" 
d="M-291 697.5q28 34.5 74 34.5q19 0 36.5 -7.5t43.5 -23.5q20 -12 33 -18t24 -6q20 0 31.5 14.5t13.5 37.5h57q0 -66 -28 -100.5t-74 -34.5q-19 0 -35.5 7t-44.5 23q-37 24 -57 24t-31.5 -14t-13.5 -37h-57q0 66 28 100.5z" />
    <glyph glyph-name="uni0306" 
d="M-259.5 619.5q-49.5 34.5 -68.5 103.5l63 28q43 -84 117 -84q73 0 116 84l63 -27q-19 -69 -68 -104t-111 -35t-111.5 34.5z" />
    <glyph glyph-name="uni0307" 
d="M-218 723h139v-123h-139v123z" />
    <glyph glyph-name="hookabovecomb" 
d="M-113 559h-68v27q0 20 10 34t28 30q12 10 18 17.5t6 15.5q0 24 -37 24q-27 0 -54 -10l-18 52q41 19 84 19q52 0 81.5 -21t29.5 -52q0 -23 -11 -37.5t-34 -32.5q-17 -13 -26 -23t-9 -23v-20z" />
    <glyph glyph-name="dotbelowcomb" 
d="M-209 -78h121v-117h-121v117z" />
    <glyph glyph-name="uni1EA0" unicode="&#x1ea0;" horiz-adv-x="750" 
d="M621 0l-71 167h-348l-72 -167h-130l322 712h105l323 -712h-129zM245 267h262l-131 305zM314 -78h121v-117h-121v117z" />
    <glyph glyph-name="uni1EA1" unicode="&#x1ea1;" horiz-adv-x="619" 
d="M551 505v-505h-123v81q-23 -42 -66 -65.5t-98 -23.5q-66 0 -117 32t-79 91t-28 137t28.5 138.5t79.5 94t116 33.5q55 0 98 -23.5t66 -65.5v76h123zM394 133q34 43 34 121q0 80 -34 123t-97 43q-62 0 -96.5 -44.5t-34.5 -123.5q0 -78 34.5 -120t97.5 -42q62 0 96 43z
M248 -78h121v-117h-121v117z" />
    <glyph glyph-name="uni1EA2" unicode="&#x1ea2;" horiz-adv-x="750" 
d="M621 0l-71 167h-348l-72 -167h-130l322 712h105l323 -712h-129zM245 267h262l-131 305zM408 773h-67v20q0 18 11.5 27.5t31.5 19.5q13 6 18.5 10t5.5 9q0 18 -37 18q-26 0 -58 -11l-18 49q42 17 91 17q47 0 75.5 -18t28.5 -46q0 -20 -12.5 -31t-35.5 -21q-18 -9 -26 -15
t-8 -16v-12z" />
    <glyph glyph-name="uni1EA3" unicode="&#x1ea3;" horiz-adv-x="619" 
d="M551 505v-505h-123v81q-23 -42 -66 -65.5t-98 -23.5q-66 0 -117 32t-79 91t-28 137t28.5 138.5t79.5 94t116 33.5q55 0 98 -23.5t66 -65.5v76h123zM394 133q34 43 34 121q0 80 -34 123t-97 43q-62 0 -96.5 -44.5t-34.5 -123.5q0 -78 34.5 -120t97.5 -42q62 0 96 43z
M344 570h-68v27q0 20 10 34t28 30q12 10 18 17.5t6 15.5q0 24 -37 24q-27 0 -54 -10l-18 52q41 19 84 19q52 0 81.5 -21t29.5 -52q0 -23 -11 -37.5t-34 -32.5q-17 -13 -26 -23t-9 -23v-20z" />
    <glyph glyph-name="uni1EA4" unicode="&#x1ea4;" horiz-adv-x="750" 
d="M621 0l-71 167h-348l-72 -167h-130l322 712h105l323 -712h-129zM245 267h262l-131 305zM531 879h-65l80 142h110zM307 773h-98l128 143h75l128 -143h-98l-67 82z" />
    <glyph glyph-name="uni1EA5" unicode="&#x1ea5;" horiz-adv-x="619" 
d="M551 505v-505h-123v81q-23 -42 -66 -65.5t-98 -23.5q-66 0 -117 32t-79 91t-28 137t28.5 138.5t79.5 94t116 33.5q55 0 98 -23.5t66 -65.5v76h123zM394 133q34 43 34 121q0 80 -34 123t-97 43q-62 0 -96.5 -44.5t-34.5 -123.5q0 -78 34.5 -120t97.5 -42q62 0 96 43z
M465 677h-65l80 142h110zM241 570h-98l128 143h75l128 -143h-98l-67 82z" />
    <glyph glyph-name="uni1EA6" unicode="&#x1ea6;" horiz-adv-x="750" 
d="M621 0l-71 167h-348l-72 -167h-130l322 712h105l323 -712h-129zM245 267h262l-131 305zM509 879l-119 142h110l74 -142h-65zM307 773h-98l128 143h75l128 -143h-98l-67 82z" />
    <glyph glyph-name="uni1EA7" unicode="&#x1ea7;" horiz-adv-x="619" 
d="M551 505v-505h-123v81q-23 -42 -66 -65.5t-98 -23.5q-66 0 -117 32t-79 91t-28 137t28.5 138.5t79.5 94t116 33.5q55 0 98 -23.5t66 -65.5v76h123zM394 133q34 43 34 121q0 80 -34 123t-97 43q-62 0 -96.5 -44.5t-34.5 -123.5q0 -78 34.5 -120t97.5 -42q62 0 96 43z
M443 677l-119 142h110l74 -142h-65zM241 570h-98l128 143h75l128 -143h-98l-67 82z" />
    <glyph glyph-name="uni1EA8" unicode="&#x1ea8;" horiz-adv-x="750" 
d="M621 0l-71 167h-348l-72 -167h-130l322 712h105l323 -712h-129zM245 267h262l-131 305zM532 880h-67v19q0 18 12.5 27.5t33.5 17.5q8 3 14.5 6t6.5 7q0 7 -9 11.5t-27 4.5q-27 0 -60 -11l-18 47q41 18 91 18q48 0 76.5 -17t28.5 -44q0 -19 -12 -29t-35 -19
q-18 -8 -26.5 -14t-8.5 -16v-8zM307 773h-98l128 143h75l128 -143h-98l-67 82z" />
    <glyph glyph-name="uni1EA9" unicode="&#x1ea9;" horiz-adv-x="619" 
d="M551 505v-505h-123v81q-23 -42 -66 -65.5t-98 -23.5q-66 0 -117 32t-79 91t-28 137t28.5 138.5t79.5 94t116 33.5q55 0 98 -23.5t66 -65.5v76h123zM394 133q34 43 34 121q0 80 -34 123t-97 43q-62 0 -96.5 -44.5t-34.5 -123.5q0 -78 34.5 -120t97.5 -42q62 0 96 43z
M466 677h-67v19q0 18 12 27t34 18q21 7 21 14t-9 11.5t-27 4.5q-24 0 -60 -12l-18 48q45 18 91 18q48 0 76.5 -17.5t28.5 -45.5q0 -19 -12 -28.5t-35 -18.5q-17 -6 -26 -12.5t-9 -16.5v-9zM241 570h-98l128 143h75l128 -143h-98l-67 82z" />
    <glyph glyph-name="uni1EAA" unicode="&#x1eaa;" horiz-adv-x="750" 
d="M621 0l-71 167h-348l-72 -167h-130l322 712h105l323 -712h-129zM245 267h262l-131 305zM233 1006.5q29 29.5 73 29.5q19 0 36 -5t44 -16q40 -16 57 -16q20 0 31.5 9.5t13.5 26.5h57q0 -44 -29.5 -74t-72.5 -30q-19 0 -36 5t-44 16q-38 17 -57 17q-20 0 -31.5 -10
t-13.5 -27h-57q0 45 29 74.5zM307 773h-98l128 143h75l128 -143h-98l-67 82z" />
    <glyph glyph-name="uni1EAB" unicode="&#x1eab;" horiz-adv-x="619" 
d="M551 505v-505h-123v81q-23 -42 -66 -65.5t-98 -23.5q-66 0 -117 32t-79 91t-28 137t28.5 138.5t79.5 94t116 33.5q55 0 98 -23.5t66 -65.5v76h123zM394 133q34 43 34 121q0 80 -34 123t-97 43q-62 0 -96.5 -44.5t-34.5 -123.5q0 -78 34.5 -120t97.5 -42q62 0 96 43z
M167 804q29 29 73 29q19 0 36 -5t44 -16q40 -16 57 -16q20 0 31.5 10t13.5 26h57q0 -44 -29 -73.5t-73 -29.5q-19 0 -36 5t-44 16q-40 16 -57 16q-20 0 -31.5 -10t-13.5 -26h-57q0 45 29 74zM241 570h-98l128 143h75l128 -143h-98l-67 82z" />
    <glyph glyph-name="uni1EAC" unicode="&#x1eac;" horiz-adv-x="750" 
d="M621 0l-71 167h-348l-72 -167h-130l322 712h105l323 -712h-129zM245 267h262l-131 305zM314 -78h121v-117h-121v117zM308 773h-99l128 155h75l128 -155h-99l-66 92z" />
    <glyph glyph-name="uni1EAD" unicode="&#x1ead;" horiz-adv-x="619" 
d="M551 505v-505h-123v81q-23 -42 -66 -65.5t-98 -23.5q-66 0 -117 32t-79 91t-28 137t28.5 138.5t79.5 94t116 33.5q55 0 98 -23.5t66 -65.5v76h123zM394 133q34 43 34 121q0 80 -34 123t-97 43q-62 0 -96.5 -44.5t-34.5 -123.5q0 -78 34.5 -120t97.5 -42q62 0 96 43z
M248 -78h121v-117h-121v117zM245 570h-102l126 206h79l126 -206h-102l-63 128z" />
    <glyph glyph-name="uni1EAE" unicode="&#x1eae;" horiz-adv-x="750" 
d="M621 0l-71 167h-348l-72 -167h-130l322 712h105l323 -712h-129zM245 267h262l-131 305zM412 879h-75l100 142h115zM267 795q-46 27 -66 82l51 22q19 -32 51.5 -47.5t71.5 -15.5q38 0 70.5 15.5t51.5 47.5l51 -22q-20 -54 -65.5 -81.5t-107.5 -27.5t-108 27z" />
    <glyph glyph-name="uni1EAF" unicode="&#x1eaf;" horiz-adv-x="619" 
d="M551 505v-505h-123v81q-23 -42 -66 -65.5t-98 -23.5q-66 0 -117 32t-79 91t-28 137t28.5 138.5t79.5 94t116 33.5q55 0 98 -23.5t66 -65.5v76h123zM394 133q34 43 34 121q0 80 -34 123t-97 43q-62 0 -96.5 -44.5t-34.5 -123.5q0 -78 34.5 -120t97.5 -42q62 0 96 43z
M346 677h-75l100 142h115zM201 592q-46 27 -66 82l51 22q19 -32 51.5 -47t71.5 -15q38 0 70.5 15t51.5 47l51 -22q-20 -54 -65.5 -81.5t-107.5 -27.5t-108 27z" />
    <glyph glyph-name="uni1EB0" unicode="&#x1eb0;" horiz-adv-x="750" 
d="M621 0l-71 167h-348l-72 -167h-130l322 712h105l323 -712h-129zM245 267h262l-131 305zM337 879l-140 142h115l100 -142h-75zM267 795q-46 27 -66 82l51 22q19 -32 51.5 -47.5t71.5 -15.5q38 0 70.5 15.5t51.5 47.5l51 -22q-20 -54 -65.5 -81.5t-107.5 -27.5t-108 27z
" />
    <glyph glyph-name="uni1EB1" unicode="&#x1eb1;" horiz-adv-x="619" 
d="M551 505v-505h-123v81q-23 -42 -66 -65.5t-98 -23.5q-66 0 -117 32t-79 91t-28 137t28.5 138.5t79.5 94t116 33.5q55 0 98 -23.5t66 -65.5v76h123zM394 133q34 43 34 121q0 80 -34 123t-97 43q-62 0 -96.5 -44.5t-34.5 -123.5q0 -78 34.5 -120t97.5 -42q62 0 96 43z
M271 677l-140 142h115l100 -142h-75zM201 592q-46 27 -66 82l51 22q19 -32 51.5 -47t71.5 -15q38 0 70.5 15t51.5 47l51 -22q-20 -54 -65.5 -81.5t-107.5 -27.5t-108 27z" />
    <glyph glyph-name="uni1EB2" unicode="&#x1eb2;" horiz-adv-x="750" 
d="M621 0l-71 167h-348l-72 -167h-130l322 712h105l323 -712h-129zM245 267h262l-131 305zM408 880h-67v19q0 18 12.5 27.5t33.5 17.5q8 3 14.5 6t6.5 7q0 7 -9 11.5t-28 4.5q-26 0 -58 -11l-18 47q41 18 91 18q48 0 76 -17t28 -44q0 -19 -12 -29t-35 -19q-18 -8 -26.5 -14
t-8.5 -16v-8zM267 795q-46 27 -66 82l51 22q19 -32 51.5 -47.5t71.5 -15.5q38 0 70.5 15.5t51.5 47.5l51 -22q-20 -54 -65.5 -81.5t-107.5 -27.5t-108 27z" />
    <glyph glyph-name="uni1EB3" unicode="&#x1eb3;" horiz-adv-x="619" 
d="M551 505v-505h-123v81q-23 -42 -66 -65.5t-98 -23.5q-66 0 -117 32t-79 91t-28 137t28.5 138.5t79.5 94t116 33.5q55 0 98 -23.5t66 -65.5v76h123zM394 133q34 43 34 121q0 80 -34 123t-97 43q-62 0 -96.5 -44.5t-34.5 -123.5q0 -78 34.5 -120t97.5 -42q62 0 96 43z
M342 677h-67v19q0 18 12 27t34 18q21 7 21 14t-9.5 11.5t-27.5 4.5q-23 0 -58 -12l-18 48q45 18 91 18q47 0 75.5 -17.5t28.5 -45.5q0 -19 -12 -28.5t-35 -18.5q-17 -6 -26 -12.5t-9 -16.5v-9zM201 592q-46 27 -66 82l51 22q19 -32 51.5 -47t71.5 -15q38 0 70.5 15t51.5 47
l51 -22q-20 -54 -65.5 -81.5t-107.5 -27.5t-108 27z" />
    <glyph glyph-name="uni1EB4" unicode="&#x1eb4;" horiz-adv-x="750" 
d="M621 0l-71 167h-348l-72 -167h-130l322 712h105l323 -712h-129zM245 267h262l-131 305zM233 998.5q29 29.5 73 29.5q19 0 36 -5.5t44 -17.5q15 -7 30.5 -12.5t26.5 -5.5q20 0 31.5 10t13.5 28h57q0 -46 -29 -75.5t-73 -29.5q-17 0 -33 4.5t-29.5 10t-17.5 7.5
q-36 18 -57 18q-20 0 -31.5 -10t-13.5 -27h-57q0 46 29 75.5zM267 795q-46 27 -66 82l51 22q19 -32 51.5 -47.5t71.5 -15.5q38 0 70.5 15.5t51.5 47.5l51 -22q-20 -54 -65.5 -81.5t-107.5 -27.5t-108 27z" />
    <glyph glyph-name="uni1EB5" unicode="&#x1eb5;" horiz-adv-x="619" 
d="M551 505v-505h-123v81q-23 -42 -66 -65.5t-98 -23.5q-66 0 -117 32t-79 91t-28 137t28.5 138.5t79.5 94t116 33.5q55 0 98 -23.5t66 -65.5v76h123zM394 133q34 43 34 121q0 80 -34 123t-97 43q-62 0 -96.5 -44.5t-34.5 -123.5q0 -78 34.5 -120t97.5 -42q62 0 96 43z
M167 795.5q29 29.5 73 29.5q19 0 36 -5.5t44 -17.5q15 -7 30.5 -12.5t26.5 -5.5q20 0 31.5 10t13.5 28h57q0 -46 -29 -75.5t-73 -29.5q-19 0 -36 5.5t-44 17.5q-15 7 -30.5 12.5t-26.5 5.5q-20 0 -31.5 -10t-13.5 -28h-57q0 46 29 75.5zM201 592q-46 27 -66 82l51 22
q19 -32 51.5 -47t71.5 -15q38 0 70.5 15t51.5 47l51 -22q-20 -54 -65.5 -81.5t-107.5 -27.5t-108 27z" />
    <glyph glyph-name="uni1EB6" unicode="&#x1eb6;" horiz-adv-x="750" 
d="M621 0l-71 167h-348l-72 -167h-130l322 712h105l323 -712h-129zM245 267h262l-131 305zM314 -78h121v-117h-121v117zM267 810q-46 27 -66 82l62 27q20 -32 47.5 -45t64.5 -13q36 0 63.5 13t47.5 45l62 -27q-20 -54 -65.5 -81.5t-107.5 -27.5t-108 27z" />
    <glyph glyph-name="uni1EB7" unicode="&#x1eb7;" horiz-adv-x="619" 
d="M551 505v-505h-123v81q-23 -42 -66 -65.5t-98 -23.5q-66 0 -117 32t-79 91t-28 137t28.5 138.5t79.5 94t116 33.5q55 0 98 -23.5t66 -65.5v76h123zM394 133q34 43 34 121q0 80 -34 123t-97 43q-62 0 -96.5 -44.5t-34.5 -123.5q0 -78 34.5 -120t97.5 -42q62 0 96 43z
M248 -78h121v-117h-121v117zM197.5 630.5q-49.5 34.5 -68.5 103.5l63 28q43 -84 117 -84q73 0 116 84l63 -27q-19 -69 -68 -104t-111 -35t-111.5 34.5z" />
    <glyph glyph-name="uni1EB8" unicode="&#x1eb8;" horiz-adv-x="595" 
d="M77 0v712h476v-102h-350v-197h329v-102h-329v-209h350v-102h-476zM270 -78h121v-117h-121v117z" />
    <glyph glyph-name="uni1EB9" unicode="&#x1eb9;" horiz-adv-x="548" 
d="M510 246h-348q4 -81 40.5 -119.5t108.5 -38.5q83 0 154 54l36 -86q-36 -29 -88.5 -46.5t-106.5 -17.5q-124 0 -195 70t-71 192q0 77 31 137t87 93.5t127 33.5q104 0 164.5 -67.5t60.5 -185.5v-19zM206.5 398.5q-31.5 -29.5 -40.5 -85.5h235q-6 57 -34.5 86t-78.5 29
t-81.5 -29.5zM243 -78h121v-117h-121v117z" />
    <glyph glyph-name="uni1EBA" unicode="&#x1eba;" horiz-adv-x="595" 
d="M77 0v712h476v-102h-350v-197h329v-102h-329v-209h350v-102h-476zM364 773h-67v20q0 18 11.5 27.5t31.5 19.5q13 6 18.5 10t5.5 9q0 18 -37 18q-26 0 -58 -11l-18 49q42 17 91 17q47 0 75.5 -18t28.5 -46q0 -20 -12.5 -31t-35.5 -21q-18 -9 -26 -15t-8 -16v-12z" />
    <glyph glyph-name="uni1EBB" unicode="&#x1ebb;" horiz-adv-x="548" 
d="M510 246h-348q4 -81 40.5 -119.5t108.5 -38.5q83 0 154 54l36 -86q-36 -29 -88.5 -46.5t-106.5 -17.5q-124 0 -195 70t-71 192q0 77 31 137t87 93.5t127 33.5q104 0 164.5 -67.5t60.5 -185.5v-19zM206.5 398.5q-31.5 -29.5 -40.5 -85.5h235q-6 57 -34.5 86t-78.5 29
t-81.5 -29.5zM320 570h-68v27q0 20 10 34t28 30q12 10 18 17.5t6 15.5q0 24 -37 24q-27 0 -54 -10l-18 52q41 19 84 19q52 0 81.5 -21t29.5 -52q0 -23 -11 -37.5t-34 -32.5q-17 -13 -26 -23t-9 -23v-20z" />
    <glyph glyph-name="uni1EBC" unicode="&#x1ebc;" horiz-adv-x="595" 
d="M77 0v712h476v-102h-350v-197h329v-102h-329v-209h350v-102h-476zM188 886q28 34 74 34q19 0 35.5 -7t44.5 -23q37 -24 57 -24t31.5 14t13.5 37h57q0 -66 -28 -100t-74 -34q-19 0 -35.5 7t-44.5 23q-37 24 -57 24t-31.5 -14t-13.5 -37h-57q0 66 28 100z" />
    <glyph glyph-name="uni1EBD" unicode="&#x1ebd;" horiz-adv-x="548" 
d="M510 246h-348q4 -81 40.5 -119.5t108.5 -38.5q83 0 154 54l36 -86q-36 -29 -88.5 -46.5t-106.5 -17.5q-124 0 -195 70t-71 192q0 77 31 137t87 93.5t127 33.5q104 0 164.5 -67.5t60.5 -185.5v-19zM206.5 398.5q-31.5 -29.5 -40.5 -85.5h235q-6 57 -34.5 86t-78.5 29
t-81.5 -29.5zM142 708.5q28 34.5 74 34.5q19 0 36.5 -7.5t43.5 -23.5q20 -12 33 -18t24 -6q20 0 31.5 14.5t13.5 37.5h57q0 -66 -28 -100.5t-74 -34.5q-19 0 -35.5 7t-44.5 23q-37 24 -57 24t-31.5 -14t-13.5 -37h-57q0 66 28 100.5z" />
    <glyph glyph-name="uni1EBE" unicode="&#x1ebe;" horiz-adv-x="595" 
d="M77 0v712h476v-102h-350v-197h329v-102h-329v-209h350v-102h-476zM487 879h-65l80 142h110zM263 773h-98l128 143h75l128 -143h-98l-67 82z" />
    <glyph glyph-name="uni1EBF" unicode="&#x1ebf;" horiz-adv-x="548" 
d="M510 246h-348q4 -81 40.5 -119.5t108.5 -38.5q83 0 154 54l36 -86q-36 -29 -88.5 -46.5t-106.5 -17.5q-124 0 -195 70t-71 192q0 77 31 137t87 93.5t127 33.5q104 0 164.5 -67.5t60.5 -185.5v-19zM206.5 398.5q-31.5 -29.5 -40.5 -85.5h235q-6 57 -34.5 86t-78.5 29
t-81.5 -29.5zM441 677h-65l80 142h110zM217 570h-98l128 143h75l128 -143h-98l-67 82z" />
    <glyph glyph-name="uni1EC0" unicode="&#x1ec0;" horiz-adv-x="595" 
d="M77 0v712h476v-102h-350v-197h329v-102h-329v-209h350v-102h-476zM465 879l-119 142h110l74 -142h-65zM263 773h-98l128 143h75l128 -143h-98l-67 82z" />
    <glyph glyph-name="uni1EC1" unicode="&#x1ec1;" horiz-adv-x="548" 
d="M510 246h-348q4 -81 40.5 -119.5t108.5 -38.5q83 0 154 54l36 -86q-36 -29 -88.5 -46.5t-106.5 -17.5q-124 0 -195 70t-71 192q0 77 31 137t87 93.5t127 33.5q104 0 164.5 -67.5t60.5 -185.5v-19zM206.5 398.5q-31.5 -29.5 -40.5 -85.5h235q-6 57 -34.5 86t-78.5 29
t-81.5 -29.5zM419 677l-119 142h110l74 -142h-65zM217 570h-98l128 143h75l128 -143h-98l-67 82z" />
    <glyph glyph-name="uni1EC2" unicode="&#x1ec2;" horiz-adv-x="595" 
d="M77 0v712h476v-102h-350v-197h329v-102h-329v-209h350v-102h-476zM488 880h-67v19q0 18 12.5 27.5t33.5 17.5q8 3 14.5 6t6.5 7q0 7 -9 11.5t-27 4.5q-27 0 -60 -11l-18 47q41 18 91 18q48 0 76.5 -17t28.5 -44q0 -19 -12 -29t-35 -19q-18 -8 -26.5 -14t-8.5 -16v-8z
M263 773h-98l128 143h75l128 -143h-98l-67 82z" />
    <glyph glyph-name="uni1EC3" unicode="&#x1ec3;" horiz-adv-x="548" 
d="M510 246h-348q4 -81 40.5 -119.5t108.5 -38.5q83 0 154 54l36 -86q-36 -29 -88.5 -46.5t-106.5 -17.5q-124 0 -195 70t-71 192q0 77 31 137t87 93.5t127 33.5q104 0 164.5 -67.5t60.5 -185.5v-19zM206.5 398.5q-31.5 -29.5 -40.5 -85.5h235q-6 57 -34.5 86t-78.5 29
t-81.5 -29.5zM442 677h-67v19q0 18 12 27t34 18q21 7 21 14t-9 11.5t-27 4.5q-24 0 -60 -12l-18 48q45 18 91 18q48 0 76.5 -17.5t28.5 -45.5q0 -19 -12 -28.5t-35 -18.5q-17 -6 -26 -12.5t-9 -16.5v-9zM217 570h-98l128 143h75l128 -143h-98l-67 82z" />
    <glyph glyph-name="uni1EC4" unicode="&#x1ec4;" horiz-adv-x="595" 
d="M77 0v712h476v-102h-350v-197h329v-102h-329v-209h350v-102h-476zM189 1006.5q29 29.5 73 29.5q19 0 36 -5t44 -16q40 -16 57 -16q20 0 31.5 9.5t13.5 26.5h57q0 -44 -29.5 -74t-72.5 -30q-19 0 -36 5t-44 16q-38 17 -57 17q-20 0 -31.5 -10t-13.5 -27h-57q0 45 29 74.5z
M263 773h-98l128 143h75l128 -143h-98l-67 82z" />
    <glyph glyph-name="uni1EC5" unicode="&#x1ec5;" horiz-adv-x="548" 
d="M510 246h-348q4 -81 40.5 -119.5t108.5 -38.5q83 0 154 54l36 -86q-36 -29 -88.5 -46.5t-106.5 -17.5q-124 0 -195 70t-71 192q0 77 31 137t87 93.5t127 33.5q104 0 164.5 -67.5t60.5 -185.5v-19zM206.5 398.5q-31.5 -29.5 -40.5 -85.5h235q-6 57 -34.5 86t-78.5 29
t-81.5 -29.5zM143 804q29 29 73 29q19 0 36 -5t44 -16q40 -16 57 -16q20 0 31.5 10t13.5 26h57q0 -44 -29 -73.5t-73 -29.5q-19 0 -36 5t-44 16q-40 16 -57 16q-20 0 -31.5 -10t-13.5 -26h-57q0 45 29 74zM217 570h-98l128 143h75l128 -143h-98l-67 82z" />
    <glyph glyph-name="uni1EC6" unicode="&#x1ec6;" horiz-adv-x="595" 
d="M77 0v712h476v-102h-350v-197h329v-102h-329v-209h350v-102h-476zM270 -78h121v-117h-121v117zM264 773h-99l128 155h75l128 -155h-99l-66 92z" />
    <glyph glyph-name="uni1EC7" unicode="&#x1ec7;" horiz-adv-x="548" 
d="M510 246h-348q4 -81 40.5 -119.5t108.5 -38.5q83 0 154 54l36 -86q-36 -29 -88.5 -46.5t-106.5 -17.5q-124 0 -195 70t-71 192q0 77 31 137t87 93.5t127 33.5q104 0 164.5 -67.5t60.5 -185.5v-19zM206.5 398.5q-31.5 -29.5 -40.5 -85.5h235q-6 57 -34.5 86t-78.5 29
t-81.5 -29.5zM243 -78h121v-117h-121v117zM221 570h-102l126 206h79l126 -206h-102l-63 128z" />
    <glyph glyph-name="uni1EC8" unicode="&#x1ec8;" horiz-adv-x="283" 
d="M77 0v712h129v-712h-129zM174 773h-67v20q0 18 11.5 27.5t31.5 19.5q13 6 18.5 10t5.5 9q0 18 -37 18q-26 0 -58 -11l-18 49q42 17 91 17q47 0 75.5 -18t28.5 -46q0 -20 -12.5 -31t-35.5 -21q-18 -9 -26 -15t-8 -16v-12z" />
    <glyph glyph-name="uni1EC9" unicode="&#x1ec9;" horiz-adv-x="261" 
d="M68 0v505h124v-505h-124zM165 570h-68v27q0 20 10 34t28 30q12 10 18 17.5t6 15.5q0 24 -37 24q-27 0 -54 -10l-18 52q41 19 84 19q52 0 81.5 -21t29.5 -52q0 -23 -11 -37.5t-34 -32.5q-17 -13 -26 -23t-9 -23v-20z" />
    <glyph glyph-name="uni1ECA" unicode="&#x1eca;" horiz-adv-x="283" 
d="M77 0v712h129v-712h-129zM80 -78h121v-117h-121v117z" />
    <glyph glyph-name="uni1ECB" unicode="&#x1ecb;" horiz-adv-x="261" 
d="M68 0v505h124v-505h-124zM60 734h139v-123h-139v123zM69 -78h121v-117h-121v117z" />
    <glyph glyph-name="uni1ECC" unicode="&#x1ecc;" horiz-adv-x="786" 
d="M213.5 35.5q-76.5 44.5 -118 127t-41.5 194.5q0 111 41 193.5t117.5 126.5t180.5 44t180.5 -44t117 -126.5t40.5 -193.5q0 -112 -41 -194.5t-117 -127t-180 -44.5q-103 0 -179.5 44.5zM547 162q55 68 55 195q0 126 -55 193.5t-154 67.5t-154 -67t-55 -194t55 -195
t154 -68t154 68zM332 -78h121v-117h-121v117z" />
    <glyph glyph-name="uni1ECD" unicode="&#x1ecd;" horiz-adv-x="592" 
d="M161.5 24q-58.5 32 -90 91.5t-31.5 139.5t31.5 139.5t90 91.5t135.5 32q76 0 134 -32t89.5 -91.5t31.5 -139.5t-31.5 -139.5t-89.5 -91.5t-134 -32q-77 0 -135.5 32zM393.5 131.5q33.5 41.5 33.5 123.5q0 81 -34 123.5t-96 42.5q-63 0 -97 -42.5t-34 -123.5
q0 -82 33.5 -123.5t96.5 -41.5q64 0 97.5 41.5zM236 -78h121v-117h-121v117z" />
    <glyph glyph-name="uni1ECE" unicode="&#x1ece;" horiz-adv-x="786" 
d="M213.5 35.5q-76.5 44.5 -118 127t-41.5 194.5q0 111 41 193.5t117.5 126.5t180.5 44t180.5 -44t117 -126.5t40.5 -193.5q0 -112 -41 -194.5t-117 -127t-180 -44.5q-103 0 -179.5 44.5zM547 162q55 68 55 195q0 126 -55 193.5t-154 67.5t-154 -67t-55 -194t55 -195
t154 -68t154 68zM426 773h-67v20q0 18 11.5 27.5t31.5 19.5q13 6 18.5 10t5.5 9q0 18 -37 18q-26 0 -58 -11l-18 49q42 17 91 17q47 0 75.5 -18t28.5 -46q0 -20 -12.5 -31t-35.5 -21q-18 -9 -26 -15t-8 -16v-12z" />
    <glyph glyph-name="uni1ECF" unicode="&#x1ecf;" horiz-adv-x="592" 
d="M161.5 24q-58.5 32 -90 91.5t-31.5 139.5t31.5 139.5t90 91.5t135.5 32q76 0 134 -32t89.5 -91.5t31.5 -139.5t-31.5 -139.5t-89.5 -91.5t-134 -32q-77 0 -135.5 32zM393.5 131.5q33.5 41.5 33.5 123.5q0 81 -34 123.5t-96 42.5q-63 0 -97 -42.5t-34 -123.5
q0 -82 33.5 -123.5t96.5 -41.5q64 0 97.5 41.5zM332 570h-68v27q0 20 10 34t28 30q12 10 18 17.5t6 15.5q0 24 -37 24q-27 0 -54 -10l-18 52q41 19 84 19q52 0 81.5 -21t29.5 -52q0 -23 -11 -37.5t-34 -32.5q-17 -13 -26 -23t-9 -23v-20z" />
    <glyph glyph-name="uni1ED0" unicode="&#x1ed0;" horiz-adv-x="786" 
d="M213.5 35.5q-76.5 44.5 -118 127t-41.5 194.5q0 111 41 193.5t117.5 126.5t180.5 44t180.5 -44t117 -126.5t40.5 -193.5q0 -112 -41 -194.5t-117 -127t-180 -44.5q-103 0 -179.5 44.5zM547 162q55 68 55 195q0 126 -55 193.5t-154 67.5t-154 -67t-55 -194t55 -195
t154 -68t154 68zM549 879h-65l80 142h110zM325 773h-98l128 143h75l128 -143h-98l-67 82z" />
    <glyph glyph-name="uni1ED1" unicode="&#x1ed1;" horiz-adv-x="592" 
d="M161.5 24q-58.5 32 -90 91.5t-31.5 139.5t31.5 139.5t90 91.5t135.5 32q76 0 134 -32t89.5 -91.5t31.5 -139.5t-31.5 -139.5t-89.5 -91.5t-134 -32q-77 0 -135.5 32zM393.5 131.5q33.5 41.5 33.5 123.5q0 81 -34 123.5t-96 42.5q-63 0 -97 -42.5t-34 -123.5
q0 -82 33.5 -123.5t96.5 -41.5q64 0 97.5 41.5zM453 677h-65l80 142h110zM229 570h-98l128 143h75l128 -143h-98l-67 82z" />
    <glyph glyph-name="uni1ED2" unicode="&#x1ed2;" horiz-adv-x="786" 
d="M213.5 35.5q-76.5 44.5 -118 127t-41.5 194.5q0 111 41 193.5t117.5 126.5t180.5 44t180.5 -44t117 -126.5t40.5 -193.5q0 -112 -41 -194.5t-117 -127t-180 -44.5q-103 0 -179.5 44.5zM547 162q55 68 55 195q0 126 -55 193.5t-154 67.5t-154 -67t-55 -194t55 -195
t154 -68t154 68zM527 879l-119 142h110l74 -142h-65zM325 773h-98l128 143h75l128 -143h-98l-67 82z" />
    <glyph glyph-name="uni1ED3" unicode="&#x1ed3;" horiz-adv-x="592" 
d="M161.5 24q-58.5 32 -90 91.5t-31.5 139.5t31.5 139.5t90 91.5t135.5 32q76 0 134 -32t89.5 -91.5t31.5 -139.5t-31.5 -139.5t-89.5 -91.5t-134 -32q-77 0 -135.5 32zM393.5 131.5q33.5 41.5 33.5 123.5q0 81 -34 123.5t-96 42.5q-63 0 -97 -42.5t-34 -123.5
q0 -82 33.5 -123.5t96.5 -41.5q64 0 97.5 41.5zM431 677l-119 142h110l74 -142h-65zM229 570h-98l128 143h75l128 -143h-98l-67 82z" />
    <glyph glyph-name="uni1ED4" unicode="&#x1ed4;" horiz-adv-x="786" 
d="M213.5 35.5q-76.5 44.5 -118 127t-41.5 194.5q0 111 41 193.5t117.5 126.5t180.5 44t180.5 -44t117 -126.5t40.5 -193.5q0 -112 -41 -194.5t-117 -127t-180 -44.5q-103 0 -179.5 44.5zM547 162q55 68 55 195q0 126 -55 193.5t-154 67.5t-154 -67t-55 -194t55 -195
t154 -68t154 68zM550 880h-67v19q0 18 12.5 27.5t33.5 17.5q8 3 14.5 6t6.5 7q0 7 -9 11.5t-27 4.5q-27 0 -60 -11l-18 47q41 18 91 18q48 0 76.5 -17t28.5 -44q0 -19 -12 -29t-35 -19q-18 -8 -26.5 -14t-8.5 -16v-8zM325 773h-98l128 143h75l128 -143h-98l-67 82z" />
    <glyph glyph-name="uni1ED5" unicode="&#x1ed5;" horiz-adv-x="592" 
d="M161.5 24q-58.5 32 -90 91.5t-31.5 139.5t31.5 139.5t90 91.5t135.5 32q76 0 134 -32t89.5 -91.5t31.5 -139.5t-31.5 -139.5t-89.5 -91.5t-134 -32q-77 0 -135.5 32zM393.5 131.5q33.5 41.5 33.5 123.5q0 81 -34 123.5t-96 42.5q-63 0 -97 -42.5t-34 -123.5
q0 -82 33.5 -123.5t96.5 -41.5q64 0 97.5 41.5zM454 677h-67v19q0 18 12 27t34 18q21 7 21 14t-9 11.5t-27 4.5q-24 0 -60 -12l-18 48q45 18 91 18q48 0 76.5 -17.5t28.5 -45.5q0 -19 -12 -28.5t-35 -18.5q-17 -6 -26 -12.5t-9 -16.5v-9zM229 570h-98l128 143h75l128 -143
h-98l-67 82z" />
    <glyph glyph-name="uni1ED6" unicode="&#x1ed6;" horiz-adv-x="786" 
d="M213.5 35.5q-76.5 44.5 -118 127t-41.5 194.5q0 111 41 193.5t117.5 126.5t180.5 44t180.5 -44t117 -126.5t40.5 -193.5q0 -112 -41 -194.5t-117 -127t-180 -44.5q-103 0 -179.5 44.5zM547 162q55 68 55 195q0 126 -55 193.5t-154 67.5t-154 -67t-55 -194t55 -195
t154 -68t154 68zM251 1006.5q29 29.5 73 29.5q19 0 36 -5t44 -16q40 -16 57 -16q20 0 31.5 9.5t13.5 26.5h57q0 -44 -29.5 -74t-72.5 -30q-19 0 -36 5t-44 16q-38 17 -57 17q-20 0 -31.5 -10t-13.5 -27h-57q0 45 29 74.5zM325 773h-98l128 143h75l128 -143h-98l-67 82z" />
    <glyph glyph-name="uni1ED7" unicode="&#x1ed7;" horiz-adv-x="592" 
d="M161.5 24q-58.5 32 -90 91.5t-31.5 139.5t31.5 139.5t90 91.5t135.5 32q76 0 134 -32t89.5 -91.5t31.5 -139.5t-31.5 -139.5t-89.5 -91.5t-134 -32q-77 0 -135.5 32zM393.5 131.5q33.5 41.5 33.5 123.5q0 81 -34 123.5t-96 42.5q-63 0 -97 -42.5t-34 -123.5
q0 -82 33.5 -123.5t96.5 -41.5q64 0 97.5 41.5zM155 804q29 29 73 29q19 0 36 -5t44 -16q40 -16 57 -16q20 0 31.5 10t13.5 26h57q0 -44 -29 -73.5t-73 -29.5q-19 0 -36 5t-44 16q-40 16 -57 16q-20 0 -31.5 -10t-13.5 -26h-57q0 45 29 74zM229 570h-98l128 143h75l128 -143
h-98l-67 82z" />
    <glyph glyph-name="uni1ED8" unicode="&#x1ed8;" horiz-adv-x="786" 
d="M213.5 35.5q-76.5 44.5 -118 127t-41.5 194.5q0 111 41 193.5t117.5 126.5t180.5 44t180.5 -44t117 -126.5t40.5 -193.5q0 -112 -41 -194.5t-117 -127t-180 -44.5q-103 0 -179.5 44.5zM547 162q55 68 55 195q0 126 -55 193.5t-154 67.5t-154 -67t-55 -194t55 -195
t154 -68t154 68zM332 -78h121v-117h-121v117zM326 773h-99l128 155h75l128 -155h-99l-66 92z" />
    <glyph glyph-name="uni1ED9" unicode="&#x1ed9;" horiz-adv-x="592" 
d="M161.5 24q-58.5 32 -90 91.5t-31.5 139.5t31.5 139.5t90 91.5t135.5 32q76 0 134 -32t89.5 -91.5t31.5 -139.5t-31.5 -139.5t-89.5 -91.5t-134 -32q-77 0 -135.5 32zM393.5 131.5q33.5 41.5 33.5 123.5q0 81 -34 123.5t-96 42.5q-63 0 -97 -42.5t-34 -123.5
q0 -82 33.5 -123.5t96.5 -41.5q64 0 97.5 41.5zM236 -78h121v-117h-121v117zM233 570h-102l126 206h79l126 -206h-102l-63 128z" />
    <glyph glyph-name="uni1EDA" unicode="&#x1eda;" horiz-adv-x="786" 
d="M698.5 700.5q-32.5 -40.5 -89.5 -50.5q60 -46 91 -120.5t31 -172.5q0 -112 -41 -194.5t-117 -127t-180 -44.5q-103 0 -179.5 44.5t-118 127t-41.5 194.5q0 111 41.5 193.5t118.5 126.5t182 44q32 0 69 -5q40 -4 61 -4q53 0 75 24t22 82v18h108v-34q0 -61 -32.5 -101.5z
M547 162q55 68 55 195q0 126 -55 193.5t-154 67.5t-154 -67t-55 -194t55 -195t154 -68t154 68zM433 773h-81l103 155h121z" />
    <glyph glyph-name="uni1EDB" unicode="&#x1edb;" horiz-adv-x="592" 
d="M542.5 509q-25.5 -39 -71.5 -55q40 -34 60.5 -85t20.5 -115q0 -79 -31.5 -138.5t-89.5 -91.5t-134 -32q-77 0 -135.5 32t-90 91.5t-31.5 138.5q0 80 31.5 139.5t89 92t133.5 32.5q13 0 56 -5q16 -3 25 -3q41 0 63 23.5t22 84.5v18h108v-34q0 -54 -25.5 -93zM393.5 131.5
q33.5 41.5 33.5 123.5q0 81 -34 123.5t-96 42.5q-63 0 -97 -42.5t-34 -123.5q0 -82 33.5 -123.5t96.5 -41.5q64 0 97.5 41.5zM337 570h-81l100 206h128z" />
    <glyph glyph-name="uni1EDC" unicode="&#x1edc;" horiz-adv-x="786" 
d="M698.5 700.5q-32.5 -40.5 -89.5 -50.5q60 -46 91 -120.5t31 -172.5q0 -112 -41 -194.5t-117 -127t-180 -44.5q-103 0 -179.5 44.5t-118 127t-41.5 194.5q0 111 41.5 193.5t118.5 126.5t182 44q32 0 69 -5q40 -4 61 -4q53 0 75 24t22 82v18h108v-34q0 -61 -32.5 -101.5z
M547 162q55 68 55 195q0 126 -55 193.5t-154 67.5t-154 -67t-55 -194t55 -195t154 -68t154 68zM352 773l-143 155h121l103 -155h-81z" />
    <glyph glyph-name="uni1EDD" unicode="&#x1edd;" horiz-adv-x="592" 
d="M542.5 509q-25.5 -39 -71.5 -55q40 -34 60.5 -85t20.5 -115q0 -79 -31.5 -138.5t-89.5 -91.5t-134 -32q-77 0 -135.5 32t-90 91.5t-31.5 138.5q0 80 31.5 139.5t89 92t133.5 32.5q13 0 56 -5q16 -3 25 -3q41 0 63 23.5t22 84.5v18h108v-34q0 -54 -25.5 -93zM393.5 131.5
q33.5 41.5 33.5 123.5q0 81 -34 123.5t-96 42.5q-63 0 -97 -42.5t-34 -123.5q0 -82 33.5 -123.5t96.5 -41.5q64 0 97.5 41.5zM256 570l-147 206h128l100 -206h-81z" />
    <glyph glyph-name="uni1EDE" unicode="&#x1ede;" horiz-adv-x="786" 
d="M698.5 700.5q-32.5 -40.5 -89.5 -50.5q60 -46 91 -120.5t31 -172.5q0 -112 -41 -194.5t-117 -127t-180 -44.5q-103 0 -179.5 44.5t-118 127t-41.5 194.5q0 111 41.5 193.5t118.5 126.5t182 44q32 0 69 -5q40 -4 61 -4q53 0 75 24t22 82v18h108v-34q0 -61 -32.5 -101.5z
M547 162q55 68 55 195q0 126 -55 193.5t-154 67.5t-154 -67t-55 -194t55 -195t154 -68t154 68zM426 773h-67v20q0 18 11.5 27.5t31.5 19.5q13 6 18.5 10t5.5 9q0 18 -37 18q-26 0 -58 -11l-18 49q42 17 91 17q47 0 75.5 -18t28.5 -46q0 -20 -12.5 -31t-35.5 -21
q-18 -9 -26 -15t-8 -16v-12z" />
    <glyph glyph-name="uni1EDF" unicode="&#x1edf;" horiz-adv-x="592" 
d="M542.5 509q-25.5 -39 -71.5 -55q40 -34 60.5 -85t20.5 -115q0 -79 -31.5 -138.5t-89.5 -91.5t-134 -32q-77 0 -135.5 32t-90 91.5t-31.5 138.5q0 80 31.5 139.5t89 92t133.5 32.5q13 0 56 -5q16 -3 25 -3q41 0 63 23.5t22 84.5v18h108v-34q0 -54 -25.5 -93zM393.5 131.5
q33.5 41.5 33.5 123.5q0 81 -34 123.5t-96 42.5q-63 0 -97 -42.5t-34 -123.5q0 -82 33.5 -123.5t96.5 -41.5q64 0 97.5 41.5zM332 570h-68v27q0 20 10 34t28 30q12 10 18 17.5t6 15.5q0 24 -37 24q-27 0 -54 -10l-18 52q41 19 84 19q52 0 81.5 -21t29.5 -52q0 -23 -11 -37.5
t-34 -32.5q-17 -13 -26 -23t-9 -23v-20z" />
    <glyph glyph-name="uni1EE0" unicode="&#x1ee0;" horiz-adv-x="786" 
d="M698.5 700.5q-32.5 -40.5 -89.5 -50.5q60 -46 91 -120.5t31 -172.5q0 -112 -41 -194.5t-117 -127t-180 -44.5q-103 0 -179.5 44.5t-118 127t-41.5 194.5q0 111 41.5 193.5t118.5 126.5t182 44q32 0 69 -5q40 -4 61 -4q53 0 75 24t22 82v18h108v-34q0 -61 -32.5 -101.5z
M547 162q55 68 55 195q0 126 -55 193.5t-154 67.5t-154 -67t-55 -194t55 -195t154 -68t154 68zM250 886q28 34 74 34q19 0 35.5 -7t44.5 -23q37 -24 57 -24t31.5 14t13.5 37h57q0 -66 -28 -100t-74 -34q-19 0 -35.5 7t-44.5 23q-37 24 -57 24t-31.5 -14t-13.5 -37h-57
q0 66 28 100z" />
    <glyph glyph-name="uni1EE1" unicode="&#x1ee1;" horiz-adv-x="592" 
d="M542.5 509q-25.5 -39 -71.5 -55q40 -34 60.5 -85t20.5 -115q0 -79 -31.5 -138.5t-89.5 -91.5t-134 -32q-77 0 -135.5 32t-90 91.5t-31.5 138.5q0 80 31.5 139.5t89 92t133.5 32.5q13 0 56 -5q16 -3 25 -3q41 0 63 23.5t22 84.5v18h108v-34q0 -54 -25.5 -93zM393.5 131.5
q33.5 41.5 33.5 123.5q0 81 -34 123.5t-96 42.5q-63 0 -97 -42.5t-34 -123.5q0 -82 33.5 -123.5t96.5 -41.5q64 0 97.5 41.5zM154 708.5q28 34.5 74 34.5q19 0 36.5 -7.5t43.5 -23.5q20 -12 33 -18t24 -6q20 0 31.5 14.5t13.5 37.5h57q0 -66 -28 -100.5t-74 -34.5
q-19 0 -35.5 7t-44.5 23q-37 24 -57 24t-31.5 -14t-13.5 -37h-57q0 66 28 100.5z" />
    <glyph glyph-name="uni1EE2" unicode="&#x1ee2;" horiz-adv-x="786" 
d="M698.5 700.5q-32.5 -40.5 -89.5 -50.5q60 -46 91 -120.5t31 -172.5q0 -112 -41 -194.5t-117 -127t-180 -44.5q-103 0 -179.5 44.5t-118 127t-41.5 194.5q0 111 41.5 193.5t118.5 126.5t182 44q32 0 69 -5q40 -4 61 -4q53 0 75 24t22 82v18h108v-34q0 -61 -32.5 -101.5z
M547 162q55 68 55 195q0 126 -55 193.5t-154 67.5t-154 -67t-55 -194t55 -195t154 -68t154 68zM333 -78h121v-117h-121v117z" />
    <glyph glyph-name="uni1EE3" unicode="&#x1ee3;" horiz-adv-x="592" 
d="M542.5 509q-25.5 -39 -71.5 -55q40 -34 60.5 -85t20.5 -115q0 -79 -31.5 -138.5t-89.5 -91.5t-134 -32q-77 0 -135.5 32t-90 91.5t-31.5 138.5q0 80 31.5 139.5t89 92t133.5 32.5q13 0 56 -5q16 -3 25 -3q41 0 63 23.5t22 84.5v18h108v-34q0 -54 -25.5 -93zM393.5 131.5
q33.5 41.5 33.5 123.5q0 81 -34 123.5t-96 42.5q-63 0 -97 -42.5t-34 -123.5q0 -82 33.5 -123.5t96.5 -41.5q64 0 97.5 41.5zM236 -78h121v-117h-121v117z" />
    <glyph glyph-name="uni1EE4" unicode="&#x1ee4;" horiz-adv-x="740" 
d="M148.5 66.5q-75.5 75.5 -75.5 221.5v424h127v-431q0 -92 43 -139.5t128 -47.5q83 0 126.5 48t43.5 139v431h127v-424q0 -145 -76 -221t-221 -76q-147 0 -222.5 75.5zM310 -78h121v-117h-121v117z" />
    <glyph glyph-name="uni1EE5" unicode="&#x1ee5;" horiz-adv-x="596" 
d="M528 505v-505h-122v78q-24 -42 -64 -64t-92 -22q-185 0 -185 208v305h124v-306q0 -55 22.5 -81t69.5 -26q55 0 88 36t33 96v281h126zM236 -78h121v-117h-121v117z" />
    <glyph glyph-name="uni1EE6" unicode="&#x1ee6;" horiz-adv-x="740" 
d="M148.5 66.5q-75.5 75.5 -75.5 221.5v424h127v-431q0 -92 43 -139.5t128 -47.5q83 0 126.5 48t43.5 139v431h127v-424q0 -145 -76 -221t-221 -76q-147 0 -222.5 75.5zM404 773h-67v20q0 18 11.5 27.5t31.5 19.5q13 6 18.5 10t5.5 9q0 18 -37 18q-26 0 -58 -11l-18 49
q42 17 91 17q47 0 75.5 -18t28.5 -46q0 -20 -12.5 -31t-35.5 -21q-18 -9 -26 -15t-8 -16v-12z" />
    <glyph glyph-name="uni1EE7" unicode="&#x1ee7;" horiz-adv-x="596" 
d="M528 505v-505h-122v78q-24 -42 -64 -64t-92 -22q-185 0 -185 208v305h124v-306q0 -55 22.5 -81t69.5 -26q55 0 88 36t33 96v281h126zM332 570h-68v27q0 20 10 34t28 30q12 10 18 17.5t6 15.5q0 24 -37 24q-27 0 -54 -10l-18 52q41 19 84 19q52 0 81.5 -21t29.5 -52
q0 -23 -11 -37.5t-34 -32.5q-17 -13 -26 -23t-9 -23v-20z" />
    <glyph glyph-name="uni1EE8" unicode="&#x1ee8;" horiz-adv-x="740" 
d="M783 836v-34q0 -59 -30.5 -99t-84.5 -52v-363q0 -145 -76 -221t-221 -76q-147 0 -222.5 75.5t-75.5 221.5v424h127v-431q0 -92 43 -139.5t128 -47.5q83 0 126.5 48t43.5 139v431h37q53 0 74.5 24t21.5 82v18h109zM411 773h-81l103 155h121z" />
    <glyph glyph-name="uni1EE9" unicode="&#x1ee9;" horiz-adv-x="616" 
d="M646 636v-34q0 -61 -31.5 -102.5t-86.5 -52.5v-447h-122v78q-24 -42 -64 -64t-92 -22q-185 0 -185 208v305h124v-306q0 -55 22.5 -81t69.5 -26q55 0 88 36t33 96v281h36q53 0 76 26t23 87v18h109zM337 570h-81l100 206h128z" />
    <glyph glyph-name="uni1EEA" unicode="&#x1eea;" horiz-adv-x="740" 
d="M783 836v-34q0 -59 -30.5 -99t-84.5 -52v-363q0 -145 -76 -221t-221 -76q-147 0 -222.5 75.5t-75.5 221.5v424h127v-431q0 -92 43 -139.5t128 -47.5q83 0 126.5 48t43.5 139v431h37q53 0 74.5 24t21.5 82v18h109zM330 773l-143 155h121l103 -155h-81z" />
    <glyph glyph-name="uni1EEB" unicode="&#x1eeb;" horiz-adv-x="616" 
d="M646 636v-34q0 -61 -31.5 -102.5t-86.5 -52.5v-447h-122v78q-24 -42 -64 -64t-92 -22q-185 0 -185 208v305h124v-306q0 -55 22.5 -81t69.5 -26q55 0 88 36t33 96v281h36q53 0 76 26t23 87v18h109zM256 570l-147 206h128l100 -206h-81z" />
    <glyph glyph-name="uni1EEC" unicode="&#x1eec;" horiz-adv-x="740" 
d="M783 836v-34q0 -59 -30.5 -99t-84.5 -52v-363q0 -145 -76 -221t-221 -76q-147 0 -222.5 75.5t-75.5 221.5v424h127v-431q0 -92 43 -139.5t128 -47.5q83 0 126.5 48t43.5 139v431h37q53 0 74.5 24t21.5 82v18h109zM404 773h-67v20q0 18 11.5 27.5t31.5 19.5q13 6 18.5 10
t5.5 9q0 18 -37 18q-26 0 -58 -11l-18 49q42 17 91 17q47 0 75.5 -18t28.5 -46q0 -20 -12.5 -31t-35.5 -21q-18 -9 -26 -15t-8 -16v-12z" />
    <glyph glyph-name="uni1EED" unicode="&#x1eed;" horiz-adv-x="616" 
d="M646 636v-34q0 -61 -31.5 -102.5t-86.5 -52.5v-447h-122v78q-24 -42 -64 -64t-92 -22q-185 0 -185 208v305h124v-306q0 -55 22.5 -81t69.5 -26q55 0 88 36t33 96v281h36q53 0 76 26t23 87v18h109zM332 570h-68v27q0 20 10 34t28 30q12 10 18 17.5t6 15.5q0 24 -37 24
q-27 0 -54 -10l-18 52q41 19 84 19q52 0 81.5 -21t29.5 -52q0 -23 -11 -37.5t-34 -32.5q-17 -13 -26 -23t-9 -23v-20z" />
    <glyph glyph-name="uni1EEE" unicode="&#x1eee;" horiz-adv-x="740" 
d="M783 836v-34q0 -59 -30.5 -99t-84.5 -52v-363q0 -145 -76 -221t-221 -76q-147 0 -222.5 75.5t-75.5 221.5v424h127v-431q0 -92 43 -139.5t128 -47.5q83 0 126.5 48t43.5 139v431h37q53 0 74.5 24t21.5 82v18h109zM228 886q28 34 74 34q19 0 35.5 -7t44.5 -23
q37 -24 57 -24t31.5 14t13.5 37h57q0 -66 -28 -100t-74 -34q-19 0 -35.5 7t-44.5 23q-37 24 -57 24t-31.5 -14t-13.5 -37h-57q0 66 28 100z" />
    <glyph glyph-name="uni1EEF" unicode="&#x1eef;" horiz-adv-x="616" 
d="M646 636v-34q0 -61 -31.5 -102.5t-86.5 -52.5v-447h-122v78q-24 -42 -64 -64t-92 -22q-185 0 -185 208v305h124v-306q0 -55 22.5 -81t69.5 -26q55 0 88 36t33 96v281h36q53 0 76 26t23 87v18h109zM154 708.5q28 34.5 74 34.5q19 0 36.5 -7.5t43.5 -23.5q20 -12 33 -18
t24 -6q20 0 31.5 14.5t13.5 37.5h57q0 -66 -28 -100.5t-74 -34.5q-19 0 -35.5 7t-44.5 23q-37 24 -57 24t-31.5 -14t-13.5 -37h-57q0 66 28 100.5z" />
    <glyph glyph-name="uni1EF0" unicode="&#x1ef0;" horiz-adv-x="740" 
d="M783 836v-34q0 -59 -30.5 -99t-84.5 -52v-363q0 -145 -76 -221t-221 -76q-147 0 -222.5 75.5t-75.5 221.5v424h127v-431q0 -92 43 -139.5t128 -47.5q83 0 126.5 48t43.5 139v431h37q53 0 74.5 24t21.5 82v18h109zM310 -78h121v-117h-121v117z" />
    <glyph glyph-name="uni1EF1" unicode="&#x1ef1;" horiz-adv-x="616" 
d="M646 636v-34q0 -61 -31.5 -102.5t-86.5 -52.5v-447h-122v78q-24 -42 -64 -64t-92 -22q-185 0 -185 208v305h124v-306q0 -55 22.5 -81t69.5 -26q55 0 88 36t33 96v281h36q53 0 76 26t23 87v18h109zM236 -78h121v-117h-121v117z" />
    <glyph glyph-name="Ygrave" unicode="&#x1ef2;" horiz-adv-x="629" 
d="M668 712l-289 -430v-282h-129v282l-289 430h147l206 -322l207 322h147zM273 773l-143 155h121l103 -155h-81z" />
    <glyph glyph-name="ygrave" unicode="&#x1ef3;" horiz-adv-x="543" 
d="M546 505l-235 -539q-40 -94 -102 -137t-153 -57l-28 96q71 16 106.5 40.5t57.5 72.5l16 37l-210 487h131l145 -363l148 363h124zM231 570l-147 206h128l100 -206h-81z" />
    <glyph glyph-name="uni1EF4" unicode="&#x1ef4;" horiz-adv-x="629" 
d="M668 712l-289 -430v-282h-129v282l-289 430h147l206 -322l207 322h147zM254 -78h121v-117h-121v117z" />
    <glyph glyph-name="uni1EF5" unicode="&#x1ef5;" horiz-adv-x="543" 
d="M546 505l-235 -539q-40 -94 -102 -137t-153 -57l-28 96q71 16 106.5 40.5t57.5 72.5l16 37l-210 487h131l145 -363l148 363h124zM361 -78h121v-117h-121v117z" />
    <glyph glyph-name="uni1EF6" unicode="&#x1ef6;" horiz-adv-x="629" 
d="M668 712l-289 -430v-282h-129v282l-289 430h147l206 -322l207 322h147zM347 773h-67v20q0 18 11.5 27.5t31.5 19.5q13 6 18.5 10t5.5 9q0 18 -37 18q-26 0 -58 -11l-18 49q42 17 91 17q47 0 75.5 -18t28.5 -46q0 -20 -12.5 -31t-35.5 -21q-18 -9 -26 -15t-8 -16v-12z" />
    <glyph glyph-name="uni1EF7" unicode="&#x1ef7;" horiz-adv-x="543" 
d="M546 505l-235 -539q-40 -94 -102 -137t-153 -57l-28 96q71 16 106.5 40.5t57.5 72.5l16 37l-210 487h131l145 -363l148 363h124zM307 570h-68v27q0 20 10 34t28 30q12 10 18 17.5t6 15.5q0 24 -37 24q-27 0 -54 -10l-18 52q41 19 84 19q52 0 81.5 -21t29.5 -52
q0 -23 -11 -37.5t-34 -32.5q-17 -13 -26 -23t-9 -23v-20z" />
    <glyph glyph-name="uni1EF8" unicode="&#x1ef8;" horiz-adv-x="629" 
d="M668 712l-289 -430v-282h-129v282l-289 430h147l206 -322l207 322h147zM171 886q28 34 74 34q19 0 35.5 -7t44.5 -23q37 -24 57 -24t31.5 14t13.5 37h57q0 -66 -28 -100t-74 -34q-19 0 -35.5 7t-44.5 23q-37 24 -57 24t-31.5 -14t-13.5 -37h-57q0 66 28 100z" />
    <glyph glyph-name="uni1EF9" unicode="&#x1ef9;" horiz-adv-x="543" 
d="M546 505l-235 -539q-40 -94 -102 -137t-153 -57l-28 96q71 16 106.5 40.5t57.5 72.5l16 37l-210 487h131l145 -363l148 363h124zM129 708.5q28 34.5 74 34.5q19 0 36.5 -7.5t43.5 -23.5q20 -12 33 -18t24 -6q20 0 31.5 14.5t13.5 37.5h57q0 -66 -28 -100.5t-74 -34.5
q-19 0 -35.5 7t-44.5 23q-37 24 -57 24t-31.5 -14t-13.5 -37h-57q0 66 28 100.5z" />
    <glyph glyph-name="dong" unicode="&#x20ab;" horiz-adv-x="600" 
d="M591 553h-70v-553h-124v79q-22 -40 -61.5 -63t-86.5 -23q-59 0 -105.5 31.5t-72.5 90t-26 137.5q0 78 25.5 135.5t72 88t106.5 30.5q47 0 85.5 -22t60.5 -61v130h-146v77h146v82h126v-82h70v-77zM367 133q30 43 30 116t-30 116t-83 43q-52 0 -82.5 -42t-30.5 -114
q0 -75 31 -118.5t82 -43.5q53 0 83 43zM67 -150v77h454v-77h-454z" />
    <glyph glyph-name="eight.dnom" horiz-adv-x="380" 
d="M337 181q23 -28 23 -66q0 -55 -46 -87t-124 -32t-124 32t-46 87q0 40 23 67.5t65 37.5q-37 13 -57 38.5t-20 58.5q0 53 43.5 83.5t115.5 30.5t115.5 -30.5t43.5 -83.5q0 -34 -20 -60.5t-57 -36.5q42 -11 65 -39zM144 341q-17 -13 -17 -37q0 -40 63 -57q31 8 46.5 21.5
t15.5 35.5q0 24 -16.5 37t-45.5 13t-46 -13zM242.5 86q18.5 14 18.5 39q0 24 -17.5 38.5t-53.5 22.5q-37 -8 -54.5 -22.5t-17.5 -38.5q0 -25 19 -39t53 -14t52.5 14z" />
    <glyph glyph-name="eight.numr" horiz-adv-x="380" 
d="M337 466q23 -28 23 -66q0 -55 -46 -87t-124 -32t-124 32t-46 87q0 40 23 67.5t65 37.5q-37 13 -57 38.5t-20 58.5q0 53 43.5 83.5t115.5 30.5t115.5 -30.5t43.5 -83.5q0 -34 -20 -60.5t-57 -36.5q42 -11 65 -39zM144 626q-17 -13 -17 -37q0 -40 63 -57q31 8 46.5 21.5
t15.5 35.5q0 24 -16.5 37t-45.5 13t-46 -13zM242.5 371q18.5 14 18.5 39q0 24 -17.5 38.5t-53.5 22.5q-37 -8 -54.5 -22.5t-17.5 -38.5q0 -25 19 -39t53 -14t52.5 14z" />
    <glyph glyph-name="gravecomb.case" 
d="M-189 773l-143 155h121l103 -155h-81z" />
    <glyph glyph-name="acutecomb.case" 
d="M-108 773h-81l103 155h121z" />
    <glyph glyph-name="uni0302.case" 
d="M-215 773h-99l128 155h75l128 -155h-99l-66 92z" />
    <glyph glyph-name="uni0306.case" 
d="M-256 810q-46 27 -66 82l62 27q20 -32 47.5 -45t64.5 -13q36 0 63.5 13t47.5 45l62 -27q-20 -54 -65.5 -81.5t-107.5 -27.5t-108 27z" />
    <glyph glyph-name="tildecomb.case" 
d="M-291 886q28 34 74 34q19 0 35.5 -7t44.5 -23q37 -24 57 -24t31.5 14t13.5 37h57q0 -66 -28 -100t-74 -34q-19 0 -35.5 7t-44.5 23q-37 24 -57 24t-31.5 -14t-13.5 -37h-57q0 66 28 100z" />
    <glyph glyph-name="hookabovecomb.case" 
d="M-115 773h-67v20q0 18 11.5 27.5t31.5 19.5q13 6 18.5 10t5.5 9q0 18 -37 18q-26 0 -58 -11l-18 49q42 17 91 17q47 0 75.5 -18t28.5 -46q0 -20 -12.5 -31t-35.5 -21q-18 -9 -26 -15t-8 -16v-12z" />
    <glyph glyph-name="uni03060301" 
d="M-111 666h-75l100 142h115zM-256 581q-46 27 -66 82l51 22q19 -32 51.5 -47t71.5 -15q38 0 70.5 15t51.5 47l51 -22q-20 -54 -65.5 -81.5t-107.5 -27.5t-108 27z" />
    <glyph glyph-name="uni03060300" 
d="M-186 666l-140 142h115l100 -142h-75zM-256 581q-46 27 -66 82l51 22q19 -32 51.5 -47t71.5 -15q38 0 70.5 15t51.5 47l51 -22q-20 -54 -65.5 -81.5t-107.5 -27.5t-108 27z" />
    <glyph glyph-name="uni03060309" 
d="M-115 666h-67v19q0 18 12 27t34 18q21 7 21 14t-9.5 11.5t-27.5 4.5q-23 0 -58 -12l-18 48q45 18 91 18q47 0 75.5 -17.5t28.5 -45.5q0 -19 -12 -28.5t-35 -18.5q-17 -6 -26 -12.5t-9 -16.5v-9zM-256 581q-46 27 -66 82l51 22q19 -32 51.5 -47t71.5 -15q38 0 70.5 15
t51.5 47l51 -22q-20 -54 -65.5 -81.5t-107.5 -27.5t-108 27z" />
    <glyph glyph-name="uni03060303" 
d="M-290 784.5q29 29.5 73 29.5q19 0 36 -5.5t44 -17.5q15 -7 30.5 -12.5t26.5 -5.5q20 0 31.5 10t13.5 28h57q0 -46 -29 -75.5t-73 -29.5q-19 0 -36 5.5t-44 17.5q-15 7 -30.5 12.5t-26.5 5.5q-20 0 -31.5 -10t-13.5 -28h-57q0 46 29 75.5zM-256 581q-46 27 -66 82l51 22
q19 -32 51.5 -47t71.5 -15q38 0 70.5 15t51.5 47l51 -22q-20 -54 -65.5 -81.5t-107.5 -27.5t-108 27z" />
    <glyph glyph-name="uni03020301" 
d="M8 666h-65l80 142h110zM-216 559h-98l128 143h75l128 -143h-98l-67 82z" />
    <glyph glyph-name="uni03020300" 
d="M-14 666l-119 142h110l74 -142h-65zM-216 559h-98l128 143h75l128 -143h-98l-67 82z" />
    <glyph glyph-name="uni03020309" 
d="M9 666h-67v19q0 18 12 27t34 18q21 7 21 14t-9 11.5t-27 4.5q-24 0 -60 -12l-18 48q45 18 91 18q48 0 76.5 -17.5t28.5 -45.5q0 -19 -12 -28.5t-35 -18.5q-17 -6 -26 -12.5t-9 -16.5v-9zM-216 559h-98l128 143h75l128 -143h-98l-67 82z" />
    <glyph glyph-name="uni03020303" 
d="M-290 793q29 29 73 29q19 0 36 -5t44 -16q40 -16 57 -16q20 0 31.5 10t13.5 26h57q0 -44 -29 -73.5t-73 -29.5q-19 0 -36 5t-44 16q-40 16 -57 16q-20 0 -31.5 -10t-13.5 -26h-57q0 45 29 74zM-216 559h-98l128 143h75l128 -143h-98l-67 82z" />
    <glyph glyph-name="uni03060301.case" 
d="M-111 879h-75l100 142h115zM-256 795q-46 27 -66 82l51 22q19 -32 51.5 -47.5t71.5 -15.5q38 0 70.5 15.5t51.5 47.5l51 -22q-20 -54 -65.5 -81.5t-107.5 -27.5t-108 27z" />
    <glyph glyph-name="uni03060300.case" 
d="M-186 879l-140 142h115l100 -142h-75zM-256 795q-46 27 -66 82l51 22q19 -32 51.5 -47.5t71.5 -15.5q38 0 70.5 15.5t51.5 47.5l51 -22q-20 -54 -65.5 -81.5t-107.5 -27.5t-108 27z" />
    <glyph glyph-name="uni03060309.case" 
d="M-115 880h-67v19q0 18 12.5 27.5t33.5 17.5q8 3 14.5 6t6.5 7q0 7 -9 11.5t-28 4.5q-26 0 -58 -11l-18 47q41 18 91 18q48 0 76 -17t28 -44q0 -19 -12 -29t-35 -19q-18 -8 -26.5 -14t-8.5 -16v-8zM-256 795q-46 27 -66 82l51 22q19 -32 51.5 -47.5t71.5 -15.5
q38 0 70.5 15.5t51.5 47.5l51 -22q-20 -54 -65.5 -81.5t-107.5 -27.5t-108 27z" />
    <glyph glyph-name="uni03060303.case" 
d="M-290 998.5q29 29.5 73 29.5q19 0 36 -5.5t44 -17.5q15 -7 30.5 -12.5t26.5 -5.5q20 0 31.5 10t13.5 28h57q0 -46 -29 -75.5t-73 -29.5q-17 0 -33 4.5t-29.5 10t-17.5 7.5q-36 18 -57 18q-20 0 -31.5 -10t-13.5 -27h-57q0 46 29 75.5zM-256 795q-46 27 -66 82l51 22
q19 -32 51.5 -47.5t71.5 -15.5q38 0 70.5 15.5t51.5 47.5l51 -22q-20 -54 -65.5 -81.5t-107.5 -27.5t-108 27z" />
    <glyph glyph-name="uni03020301.case" 
d="M8 879h-65l80 142h110zM-216 773h-98l128 143h75l128 -143h-98l-67 82z" />
    <glyph glyph-name="uni03020300.case" 
d="M-14 879l-119 142h110l74 -142h-65zM-216 773h-98l128 143h75l128 -143h-98l-67 82z" />
    <glyph glyph-name="uni03020309.case" 
d="M9 880h-67v19q0 18 12.5 27.5t33.5 17.5q8 3 14.5 6t6.5 7q0 7 -9 11.5t-27 4.5q-27 0 -60 -11l-18 47q41 18 91 18q48 0 76.5 -17t28.5 -44q0 -19 -12 -29t-35 -19q-18 -8 -26.5 -14t-8.5 -16v-8zM-216 773h-98l128 143h75l128 -143h-98l-67 82z" />
    <glyph glyph-name="uni03020303.case" 
d="M-290 1006.5q29 29.5 73 29.5q19 0 36 -5t44 -16q40 -16 57 -16q20 0 31.5 9.5t13.5 26.5h57q0 -44 -29.5 -74t-72.5 -30q-19 0 -36 5t-44 16q-38 17 -57 17q-20 0 -31.5 -10t-13.5 -27h-57q0 45 29 74.5zM-216 773h-98l128 143h75l128 -143h-98l-67 82z" />
    <hkern g1="Abreve,uni1EA0,uni1EA2,uni1EA4,uni1EA6,uni1EA8,uni1EAA,uni1EAC,uni1EAE,uni1EB0,uni1EB2,uni1EB4,uni1EB6"
	g2="uni1ECC,uni1ECE,uni1ED0,uni1ED2,uni1ED4,uni1ED6,uni1ED8,uni1EDA,uni1EDC,uni1EDE,uni1EE0,uni1EE2"
	k="22" />
    <hkern g1="Abreve,uni1EA0,uni1EA2,uni1EA4,uni1EA6,uni1EA8,uni1EAA,uni1EAC,uni1EAE,uni1EB0,uni1EB2,uni1EB4,uni1EB6"
	g2="T"
	k="88" />
    <hkern g1="Abreve,uni1EA0,uni1EA2,uni1EA4,uni1EA6,uni1EA8,uni1EAA,uni1EAC,uni1EAE,uni1EB0,uni1EB2,uni1EB4,uni1EB6"
	g2="U,uni1EE4,uni1EE6,uni1EE8,uni1EEA,uni1EEC,uni1EEE,uni1EF0"
	k="5" />
    <hkern g1="Abreve,uni1EA0,uni1EA2,uni1EA4,uni1EA6,uni1EA8,uni1EAA,uni1EAC,uni1EAE,uni1EB0,uni1EB2,uni1EB4,uni1EB6"
	g2="Ygrave,uni1EF4,uni1EF6,uni1EF8"
	k="83" />
    <hkern g1="Abreve,uni1EA0,uni1EA2,uni1EA4,uni1EA6,uni1EA8,uni1EAA,uni1EAC,uni1EAE,uni1EB0,uni1EB2,uni1EB4,uni1EB6"
	g2="hyphen"
	k="15" />
    <hkern g1="Abreve,uni1EA0,uni1EA2,uni1EA4,uni1EA6,uni1EA8,uni1EAA,uni1EAC,uni1EAE,uni1EB0,uni1EB2,uni1EB4,uni1EB6"
	g2="ygrave,uni1EF5,uni1EF7,uni1EF9"
	k="27" />
    <hkern g1="uni1EB8,uni1EBA,uni1EBC,uni1EBE,uni1EC0,uni1EC2,uni1EC4,uni1EC6"
	g2="uni1ECC,uni1ECE,uni1ED0,uni1ED2,uni1ED4,uni1ED6,uni1ED8,uni1EDA,uni1EDC,uni1EDE,uni1EE0,uni1EE2"
	k="2" />
    <hkern g1="uni1EB8,uni1EBA,uni1EBC,uni1EBE,uni1EC0,uni1EC2,uni1EC4,uni1EC6"
	g2="T"
	k="-1" />
    <hkern g1="uni1EB8,uni1EBA,uni1EBC,uni1EBE,uni1EC0,uni1EC2,uni1EC4,uni1EC6"
	g2="Ygrave,uni1EF4,uni1EF6,uni1EF8"
	k="3" />
    <hkern g1="uni1EB8,uni1EBA,uni1EBC,uni1EBE,uni1EC0,uni1EC2,uni1EC4,uni1EC6"
	g2="hyphen"
	k="3" />
    <hkern g1="uni1EB8,uni1EBA,uni1EBC,uni1EBE,uni1EC0,uni1EC2,uni1EC4,uni1EC6"
	g2="Abreve,uni1EA0,uni1EA2,uni1EA4,uni1EA6,uni1EA8,uni1EAA,uni1EAC,uni1EAE,uni1EB0,uni1EB2,uni1EB4,uni1EB6"
	k="12" />
    <hkern g1="F"
	g2="uni1ECC,uni1ECE,uni1ED0,uni1ED2,uni1ED4,uni1ED6,uni1ED8,uni1EDA,uni1EDC,uni1EDE,uni1EE0,uni1EE2"
	k="10" />
    <hkern g1="F"
	g2="T"
	k="-12" />
    <hkern g1="F"
	g2="Ygrave,uni1EF4,uni1EF6,uni1EF8"
	k="-4" />
    <hkern g1="F"
	g2="hyphen"
	k="9" />
    <hkern g1="F"
	g2="Abreve,uni1EA0,uni1EA2,uni1EA4,uni1EA6,uni1EA8,uni1EAA,uni1EAC,uni1EAE,uni1EB0,uni1EB2,uni1EB4,uni1EB6"
	k="59" />
    <hkern g1="F"
	g2="abreve,uni1EA1,uni1EA3,uni1EA5,uni1EA7,uni1EA9,uni1EAB,uni1EAD,uni1EAF,uni1EB1,uni1EB3,uni1EB5,uni1EB7,uni1EB9,uni1EBB,uni1EBD,uni1EBF,uni1EC1,uni1EC3,uni1EC5,uni1EC7,uni1ECD,uni1ECF,uni1ED1,uni1ED3,uni1ED5,uni1ED7,uni1ED9,uni1EDB,uni1EDD,uni1EDF,uni1EE1,uni1EE3"
	k="10" />
    <hkern g1="F"
	g2="uni1EE5,uni1EE7,uni1EE9,uni1EEB,uni1EED,uni1EEF,uni1EF1"
	k="10" />
    <hkern g1="uni1ECC,uni1ECE,uni1ED0,uni1ED2,uni1ED4,uni1ED6,uni1ED8,uni1EDA,uni1EDC,uni1EDE,uni1EE0,uni1EE2"
	g2="T"
	k="42" />
    <hkern g1="uni1ECC,uni1ECE,uni1ED0,uni1ED2,uni1ED4,uni1ED6,uni1ED8,uni1EDA,uni1EDC,uni1EDE,uni1EE0,uni1EE2"
	g2="Ygrave,uni1EF4,uni1EF6,uni1EF8"
	k="42" />
    <hkern g1="uni1ECC,uni1ECE,uni1ED0,uni1ED2,uni1ED4,uni1ED6,uni1ED8,uni1EDA,uni1EDC,uni1EDE,uni1EE0,uni1EE2"
	g2="Abreve,uni1EA0,uni1EA2,uni1EA4,uni1EA6,uni1EA8,uni1EAA,uni1EAC,uni1EAE,uni1EB0,uni1EB2,uni1EB4,uni1EB6"
	k="19" />
    <hkern g1="T"
	g2="uni1ECC,uni1ECE,uni1ED0,uni1ED2,uni1ED4,uni1ED6,uni1ED8,uni1EDA,uni1EDC,uni1EDE,uni1EE0,uni1EE2"
	k="42" />
    <hkern g1="T"
	g2="Ygrave,uni1EF4,uni1EF6,uni1EF8"
	k="-15" />
    <hkern g1="T"
	g2="hyphen"
	k="49" />
    <hkern g1="T"
	g2="ygrave,uni1EF5,uni1EF7,uni1EF9"
	k="78" />
    <hkern g1="T"
	g2="Abreve,uni1EA0,uni1EA2,uni1EA4,uni1EA6,uni1EA8,uni1EAA,uni1EAC,uni1EAE,uni1EB0,uni1EB2,uni1EB4,uni1EB6"
	k="88" />
    <hkern g1="T"
	g2="abreve,uni1EA1,uni1EA3,uni1EA5,uni1EA7,uni1EA9,uni1EAB,uni1EAD,uni1EAF,uni1EB1,uni1EB3,uni1EB5,uni1EB7,uni1EB9,uni1EBB,uni1EBD,uni1EBF,uni1EC1,uni1EC3,uni1EC5,uni1EC7,uni1ECD,uni1ECF,uni1ED1,uni1ED3,uni1ED5,uni1ED7,uni1ED9,uni1EDB,uni1EDD,uni1EDF,uni1EE1,uni1EE3"
	k="79" />
    <hkern g1="T"
	g2="uni1EE5,uni1EE7,uni1EE9,uni1EEB,uni1EED,uni1EEF,uni1EF1"
	k="78" />
    <hkern g1="U,uni1EE4,uni1EE6"
	g2="Abreve,uni1EA0,uni1EA2,uni1EA4,uni1EA6,uni1EA8,uni1EAA,uni1EAC,uni1EAE,uni1EB0,uni1EB2,uni1EB4,uni1EB6"
	k="5" />
    <hkern g1="uni1EE8,uni1EEA,uni1EEC,uni1EEE,uni1EF0"
	g2="T"
	k="-37" />
    <hkern g1="uni1EE8,uni1EEA,uni1EEC,uni1EEE,uni1EF0"
	g2="Ygrave,uni1EF4,uni1EF6,uni1EF8"
	k="-40" />
    <hkern g1="uni1EE8,uni1EEA,uni1EEC,uni1EEE,uni1EF0"
	g2="Abreve,uni1EA0,uni1EA2,uni1EA4,uni1EA6,uni1EA8,uni1EAA,uni1EAC,uni1EAE,uni1EB0,uni1EB2,uni1EB4,uni1EB6"
	k="3" />
    <hkern g1="Ygrave,uni1EF4,uni1EF6,uni1EF8"
	g2="uni1ECC,uni1ECE,uni1ED0,uni1ED2,uni1ED4,uni1ED6,uni1ED8,uni1EDA,uni1EDC,uni1EDE,uni1EE0,uni1EE2"
	k="42" />
    <hkern g1="Ygrave,uni1EF4,uni1EF6,uni1EF8"
	g2="T"
	k="-19" />
    <hkern g1="Ygrave,uni1EF4,uni1EF6,uni1EF8"
	g2="Ygrave,uni1EF4,uni1EF6,uni1EF8"
	k="-7" />
    <hkern g1="Ygrave,uni1EF4,uni1EF6,uni1EF8"
	g2="hyphen"
	k="49" />
    <hkern g1="Ygrave,uni1EF4,uni1EF6,uni1EF8"
	g2="ygrave,uni1EF5,uni1EF7,uni1EF9"
	k="73" />
    <hkern g1="Ygrave,uni1EF4,uni1EF6,uni1EF8"
	g2="Abreve,uni1EA0,uni1EA2,uni1EA4,uni1EA6,uni1EA8,uni1EAA,uni1EAC,uni1EAE,uni1EB0,uni1EB2,uni1EB4,uni1EB6"
	k="83" />
    <hkern g1="Ygrave,uni1EF4,uni1EF6,uni1EF8"
	g2="abreve,uni1EA1,uni1EA3,uni1EA5,uni1EA7,uni1EA9,uni1EAB,uni1EAD,uni1EAF,uni1EB1,uni1EB3,uni1EB5,uni1EB7,uni1EB9,uni1EBB,uni1EBD,uni1EBF,uni1EC1,uni1EC3,uni1EC5,uni1EC7,uni1ECD,uni1ECF,uni1ED1,uni1ED3,uni1ED5,uni1ED7,uni1ED9,uni1EDB,uni1EDD,uni1EDF,uni1EE1,uni1EE3"
	k="79" />
    <hkern g1="Ygrave,uni1EF4,uni1EF6,uni1EF8"
	g2="uni1EE5,uni1EE7,uni1EE9,uni1EEB,uni1EED,uni1EEF,uni1EF1"
	k="78" />
    <hkern g1="hyphen"
	g2="Abreve,uni1EA0,uni1EA2,uni1EA4,uni1EA6,uni1EA8,uni1EAA,uni1EAC,uni1EAE,uni1EB0,uni1EB2,uni1EB4,uni1EB6"
	k="15" />
    <hkern g1="hyphen"
	g2="Ygrave,uni1EF4,uni1EF6,uni1EF8"
	k="49" />
    <hkern g1="hyphen"
	g2="abreve,uni1EA1,uni1EA3,uni1EA5,uni1EA7,uni1EA9,uni1EAB,uni1EAD,uni1EAF,uni1EB1,uni1EB3,uni1EB5,uni1EB7,uni1EB9,uni1EBB,uni1EBD,uni1EBF,uni1EC1,uni1EC3,uni1EC5,uni1EC7,uni1ECD,uni1ECF,uni1ED1,uni1ED3,uni1ED5,uni1ED7,uni1ED9,uni1EDB,uni1EDD,uni1EDF,uni1EE1,uni1EE3"
	k="-15" />
    <hkern g1="hyphen"
	g2="ygrave,uni1EF5,uni1EF7,uni1EF9"
	k="15" />
    <hkern g1="hyphen"
	g2="T"
	k="49" />
    <hkern g1="uni1EB9,uni1EBB,uni1EBD,uni1EBF,uni1EC1,uni1EC3,uni1EC5,uni1EC7"
	g2="hyphen"
	k="-14" />
    <hkern g1="uni1EB9,uni1EBB,uni1EBD,uni1EBF,uni1EC1,uni1EC3,uni1EC5,uni1EC7"
	g2="ygrave,uni1EF5,uni1EF7,uni1EF9"
	k="9" />
    <hkern g1="uni1ECD,uni1ECF,uni1ED1,uni1ED3,uni1ED5,uni1ED7,uni1ED9,uni1EDB,uni1EDD,uni1EDF,uni1EE1,uni1EE3"
	g2="hyphen"
	k="-15" />
    <hkern g1="uni1ECD,uni1ECF,uni1ED1,uni1ED3,uni1ED5,uni1ED7,uni1ED9,uni1EDB,uni1EDD,uni1EDF,uni1EE1,uni1EE3"
	g2="ygrave,uni1EF5,uni1EF7,uni1EF9"
	k="9" />
    <hkern g1="uni1EE9,uni1EEB,uni1EED,uni1EEF,uni1EF1"
	g2="hyphen"
	k="21" />
    <hkern g1="uni1EE9,uni1EEB,uni1EED,uni1EEF,uni1EF1"
	g2="ygrave,uni1EF5,uni1EF7,uni1EF9"
	k="-7" />
    <hkern g1="ygrave,uni1EF5,uni1EF7,uni1EF9"
	g2="hyphen"
	k="15" />
    <hkern g1="ygrave,uni1EF5,uni1EF7,uni1EF9"
	g2="abreve,uni1EA1,uni1EA3,uni1EA5,uni1EA7,uni1EA9,uni1EAB,uni1EAD,uni1EAF,uni1EB1,uni1EB3,uni1EB5,uni1EB7,uni1EB9,uni1EBB,uni1EBD,uni1EBF,uni1EC1,uni1EC3,uni1EC5,uni1EC7,uni1ECD,uni1ECF,uni1ED1,uni1ED3,uni1ED5,uni1ED7,uni1ED9,uni1EDB,uni1EDD,uni1EDF,uni1EE1,uni1EE3"
	k="9" />
  </font>
</defs></svg>
