<?xml version="1.0" standalone="no"?>
<!DOCTYPE svg PUBLIC "-//W3C//DTD SVG 1.1//EN" "http://www.w3.org/Graphics/SVG/1.1/DTD/svg11.dtd" >
<svg xmlns="http://www.w3.org/2000/svg" xmlns:xlink="http://www.w3.org/1999/xlink" version="1.1">
<metadata>
Created by FontForge 20170731 at Tue Jan  8 05:11:15 2019
 By Aleksey,,,
Copyright 2016 The Muli Project Authors (contact@sansoxygen.com)
</metadata>
<defs>
<font id="Muli-Regular" horiz-adv-x="0" >
  <font-face 
    font-family="Muli"
    font-weight="400"
    font-stretch="normal"
    units-per-em="1000"
    panose-1="0 0 5 0 0 0 0 0 0 0"
    ascent="800"
    descent="-200"
    bbox="-315 -227 766 1037"
    underline-thickness="50"
    underline-position="-150"
    unicode-range="U+0020-20AB"
  />
<missing-glyph horiz-adv-x="476" 
d="M390 736v-952h-301v952h301zM317 672h-157v-31h62v-35h-63v-32h158v32h-63v35h63v31zM254 549h-95v-99h158v33h-63v66zM222 517v-34h-32v34h32zM317 425h-158v-32h63v-35h-63v-31h95v66h63v32zM317 368h-31v-63h-127v-33h158v96zM317 251h-95v-53h32v22h32v-45h-96v76
h-31v-107h158v107zM317 87h-158v-108h158v108zM286 55v-44h-96v44h96zM317 -43h-158v-31h67l-67 -45v-31h158v31h-97l67 45h30v31z" />
    <glyph glyph-name=".notdef" horiz-adv-x="476" 
d="M390 736v-952h-301v952h301zM317 672h-157v-31h62v-35h-63v-32h158v32h-63v35h63v31zM254 549h-95v-99h158v33h-63v66zM222 517v-34h-32v34h32zM317 425h-158v-32h63v-35h-63v-31h95v66h63v32zM317 368h-31v-63h-127v-33h158v96zM317 251h-95v-53h32v22h32v-45h-96v76
h-31v-107h158v107zM317 87h-158v-108h158v108zM286 55v-44h-96v44h96zM317 -43h-158v-31h67l-67 -45v-31h158v31h-97l67 45h30v31z" />
    <glyph glyph-name=".null" 
 />
    <glyph glyph-name="nonmarkingreturn" horiz-adv-x="261" 
 />
    <glyph glyph-name="NULL" 
 />
    <glyph glyph-name="space" unicode=" " horiz-adv-x="261" 
 />
    <glyph glyph-name="hyphen" unicode="-" horiz-adv-x="429" 
d="M73 235v67h283v-67h-283z" />
    <glyph glyph-name="eight" unicode="8" horiz-adv-x="600" 
d="M516.5 300.5q38.5 -46.5 38.5 -111.5q0 -91 -69 -143.5t-186 -52.5t-186 52.5t-69 143.5q0 65 39.5 112t108.5 65q-64 19 -98 62.5t-34 102.5q0 57 30 99.5t84.5 66t124.5 23.5t124.5 -23.5t84.5 -66t30 -99.5q0 -59 -34.5 -102.5t-96.5 -62.5q70 -19 108.5 -65.5z
M185.5 432.5q42.5 -35.5 114.5 -43.5q72 8 114.5 43.5t42.5 92.5q0 59 -41.5 93t-115.5 34t-115.5 -34t-41.5 -93q0 -57 42.5 -92.5zM429 95q45 34 45 99q0 59 -47.5 94.5t-126.5 43.5q-79 -8 -126.5 -43.5t-47.5 -94.5q0 -65 45 -99t129 -34t129 34z" />
    <glyph glyph-name="A" horiz-adv-x="734" 
d="M632 0l-78 183h-372l-79 -183h-85l313 712h72l313 -712h-84zM211 251h314l-157 366z" />
    <glyph glyph-name="E" horiz-adv-x="588" 
d="M88 0v712h450v-68h-369v-248h349v-69h-349v-259h369v-68h-450z" />
    <glyph glyph-name="F" unicode="F" horiz-adv-x="563" 
d="M88 0v712h440v-69h-359v-247h339v-69h-339v-327h-81z" />
    <glyph glyph-name="I" horiz-adv-x="258" 
d="M88 0v712h82v-712h-82z" />
    <glyph glyph-name="O" horiz-adv-x="772" 
d="M214 36q-73 44 -112.5 126.5t-39.5 193.5q0 112 39 194t112 126t173 44t173 -44t112 -126t39 -193q0 -112 -39.5 -194t-112.5 -126.5t-172 -44.5t-172 44zM562 139q63 77 63 218t-62.5 217t-176.5 76t-177 -76.5t-63 -216.5q0 -141 63 -218t177 -77q113 0 176 77z" />
    <glyph glyph-name="T" unicode="T" horiz-adv-x="603" 
d="M260 0v642h-248v70h579v-70h-248v-642h-83z" />
    <glyph glyph-name="U" unicode="U" horiz-adv-x="731" 
d="M154.5 64.5q-71.5 72.5 -71.5 214.5v433h81v-440q0 -104 51 -157t151 -53q99 0 149.5 53t50.5 157v440h82v-433q0 -141 -72 -214t-210 -73q-140 0 -211.5 72.5z" />
    <glyph glyph-name="Y" horiz-adv-x="607" 
d="M624 712l-280 -424v-288h-82v289l-280 423h96l226 -350l226 350h94z" />
    <glyph glyph-name="a" horiz-adv-x="600" 
d="M521 503v-503h-80v91q-22 -47 -66.5 -72.5t-103.5 -25.5q-67 0 -117.5 32t-78 90.5t-27.5 136.5t28 137.5t78.5 92.5t116.5 33q59 0 103 -26t67 -73v87h80zM401 110.5q40 50.5 40 143.5t-40 143t-114 50t-115.5 -51.5t-41.5 -143.5t41 -142t116 -50q74 0 114 50.5z" />
    <glyph glyph-name="e" horiz-adv-x="544" 
d="M499 254h-369q1 -96 44.5 -145t126.5 -49q88 0 162 59l27 -59q-33 -31 -84.5 -49t-105.5 -18q-118 0 -185 69.5t-67 190.5q0 77 30 136.5t84 92.5t123 33q100 0 157 -65.5t57 -180.5v-15zM183.5 414q-39.5 -38 -50.5 -107h293q-6 71 -41.5 108t-98.5 37t-102.5 -38z" />
    <glyph glyph-name="o" horiz-adv-x="572" 
d="M161 25q-54 32 -83.5 91t-29.5 138t29.5 138t83.5 91t125 32t125 -32t83.5 -91t29.5 -138t-29.5 -138t-83.5 -91t-125 -32t-125 32zM401 109.5q40 49.5 40 144.5q0 92 -41 142.5t-114 50.5q-74 0 -115 -50.5t-41 -142.5q0 -95 40.5 -144.5t115.5 -49.5t115 49.5z" />
    <glyph glyph-name="u" horiz-adv-x="577" 
d="M499 503v-503h-79v87q-24 -46 -67 -70t-97 -24q-89 0 -135 50t-46 148v312h81v-310q0 -68 28 -100t85 -32q67 0 108 43.5t41 114.5v284h81z" />
    <glyph glyph-name="y" horiz-adv-x="531" 
d="M520 503l-235 -549q-37 -86 -93 -126t-138 -55l-17 63q71 16 107.5 42.5t60.5 81.5l20 45l-213 498h85l170 -415l172 415h81z" />
    <glyph glyph-name="Abreve" unicode="&#x102;" horiz-adv-x="734" 
d="M632 0l-78 183h-372l-79 -183h-85l313 712h72l313 -712h-84zM211 251h314l-157 366zM267 810.5q-43 25.5 -65 81.5l51 22q23 -40 50 -55.5t64 -15.5t63.5 15.5t49.5 55.5l51 -22q-22 -56 -65 -81.5t-99 -25.5q-57 0 -100 25.5z" />
    <glyph glyph-name="abreve" unicode="&#x103;" horiz-adv-x="600" 
d="M521 503v-503h-80v91q-22 -47 -66.5 -72.5t-103.5 -25.5q-67 0 -117.5 32t-78 90.5t-27.5 136.5t28 137.5t78.5 92.5t116.5 33q59 0 103 -26t67 -73v87h80zM401 110.5q40 50.5 40 143.5t-40 143t-114 50t-115.5 -51.5t-41.5 -143.5t41 -142t116 -50q74 0 114 50.5z
M200 629.5q-45 31.5 -66 96.5l51 22q22 -48 51 -69t65 -21q73 0 115 90l51 -22q-21 -65 -65.5 -96.5t-100.5 -31.5t-101 31.5z" />
    <glyph glyph-name="dotlessi" horiz-adv-x="238" 
d="M78 0v503h81v-503h-81z" />
    <glyph glyph-name="Ohorn" horiz-adv-x="772" 
d="M674.5 707.5q-35.5 -39.5 -98.5 -45.5q65 -45 99.5 -123t34.5 -182q0 -112 -39.5 -194t-112.5 -126.5t-172 -44.5t-172 44.5t-112.5 126.5t-39.5 193q0 112 39 194t113 126t175 44q26 0 74 -4q44 -4 63 -4q61 1 86 26t25 85v15h73v-27q0 -64 -35.5 -103.5zM562.5 574
q-62.5 76 -176.5 76t-177 -76.5t-63 -216.5q0 -141 63 -218t177 -77q113 0 176 77t63 218t-62.5 217z" />
    <glyph glyph-name="ohorn" horiz-adv-x="572" 
d="M501.5 519q-24.5 -37 -69.5 -53q44 -33 68 -87.5t24 -124.5q0 -79 -29.5 -138t-83.5 -91t-125 -32t-125 32t-83.5 91t-29.5 138t29.5 138t83.5 91t125 32q17 0 45 -4q17 -3 28 -3q49 0 72 26t23 87v15h72v-26q0 -54 -24.5 -91zM401 109.5q40 49.5 40 144.5
q0 92 -41 142.5t-114 50.5q-74 0 -115 -50.5t-41 -142.5q0 -95 40.5 -144.5t115.5 -49.5t115 49.5z" />
    <glyph glyph-name="Uhorn" horiz-adv-x="731" 
d="M766 838v-27q0 -60 -31 -98t-87 -49v-385q0 -141 -72 -214t-210 -73q-140 0 -211.5 72.5t-71.5 214.5v433h81v-440q0 -104 51 -157t151 -53q99 0 149.5 53t50.5 157v440h24q56 1 80 26t24 85v15h72z" />
    <glyph glyph-name="uhorn" horiz-adv-x="591" 
d="M620 636v-26q0 -63 -31.5 -103t-89.5 -49v-458h-79v87q-24 -46 -67 -70t-97 -24q-89 0 -135 50t-46 148v312h81v-310q0 -68 28 -100t85 -32q67 0 108 43.5t41 114.5v284h23q57 0 82 27.5t25 90.5v15h72z" />
    <glyph glyph-name="gravecomb" 
d="M-177 557l-137 204h94l100 -204h-57z" />
    <glyph glyph-name="acutecomb" 
d="M-120 557h-57l100 204h94z" />
    <glyph glyph-name="uni0302" 
d="M-221 557h-75l119 204h57l119 -204h-75l-72 144z" />
    <glyph glyph-name="tildecomb" 
d="M-286.5 689q24.5 30 65.5 30q21 0 40 -8.5t45 -24.5q21 -13 33.5 -19t24.5 -6q22 0 34.5 16t12.5 39h45q0 -55 -24.5 -85t-65.5 -30q-21 0 -40 8.5t-45 24.5q-21 13 -33.5 19t-24.5 6q-22 0 -34.5 -16t-12.5 -39h-45q0 55 24.5 85z" />
    <glyph glyph-name="uni0306" 
d="M-249 618.5q-45 31.5 -66 96.5l51 22q22 -48 51 -69t65 -21q73 0 115 90l51 -22q-21 -65 -65.5 -96.5t-100.5 -31.5t-101 31.5z" />
    <glyph glyph-name="uni0307" 
d="M-198 705h99v-92h-99v92z" />
    <glyph glyph-name="hookabovecomb" 
d="M-120 557h-53v28q0 20 10 34.5t29 32.5q14 14 19.5 21t5.5 16q0 12 -10.5 18.5t-30.5 6.5q-27 0 -59 -11l-15 44q39 18 81 18q47 0 73.5 -20t26.5 -50q0 -23 -10.5 -37t-31.5 -32q-17 -13 -26 -24.5t-9 -27.5v-17z" />
    <glyph glyph-name="dotbelowcomb" 
d="M-195 -95h93v-89h-93v89z" />
    <glyph glyph-name="uni1EA0" unicode="&#x1ea0;" horiz-adv-x="734" 
d="M632 0l-78 183h-372l-79 -183h-85l313 712h72l313 -712h-84zM211 251h314l-157 366zM321 -95h93v-89h-93v89z" />
    <glyph glyph-name="uni1EA1" unicode="&#x1ea1;" horiz-adv-x="600" 
d="M521 503v-503h-80v91q-22 -47 -66.5 -72.5t-103.5 -25.5q-67 0 -117.5 32t-78 90.5t-27.5 136.5t28 137.5t78.5 92.5t116.5 33q59 0 103 -26t67 -73v87h80zM401 110.5q40 50.5 40 143.5t-40 143t-114 50t-115.5 -51.5t-41.5 -143.5t41 -142t116 -50q74 0 114 50.5z
M254 -95h93v-89h-93v89z" />
    <glyph glyph-name="uni1EA2" unicode="&#x1ea2;" horiz-adv-x="734" 
d="M632 0l-78 183h-372l-79 -183h-85l313 712h72l313 -712h-84zM211 251h314l-157 366zM394 773h-54v18q0 17 10.5 26.5t30.5 20.5q15 8 21 13t6 12q0 9 -11 14t-30 5q-30 0 -62 -12l-14 43q39 17 82 17q46 0 72.5 -17.5t26.5 -46.5q0 -20 -12 -31t-34 -21q-17 -9 -24.5 -15
t-7.5 -16v-10z" />
    <glyph glyph-name="uni1EA3" unicode="&#x1ea3;" horiz-adv-x="600" 
d="M521 503v-503h-80v91q-22 -47 -66.5 -72.5t-103.5 -25.5q-67 0 -117.5 32t-78 90.5t-27.5 136.5t28 137.5t78.5 92.5t116.5 33q59 0 103 -26t67 -73v87h80zM401 110.5q40 50.5 40 143.5t-40 143t-114 50t-115.5 -51.5t-41.5 -143.5t41 -142t116 -50q74 0 114 50.5z
M329 568h-53v28q0 20 10 34.5t29 32.5q14 14 19.5 21t5.5 16q0 12 -10.5 18.5t-30.5 6.5q-27 0 -59 -11l-15 44q39 18 81 18q47 0 73.5 -20t26.5 -50q0 -23 -10.5 -37t-31.5 -32q-17 -13 -26 -24.5t-9 -27.5v-17z" />
    <glyph glyph-name="uni1EA4" unicode="&#x1ea4;" horiz-adv-x="734" 
d="M632 0l-78 183h-372l-79 -183h-85l313 712h72l313 -712h-84zM211 251h314l-157 366zM502 877h-50l92 142h86zM293 773h-74l120 148h55l120 -148h-74l-73 100z" />
    <glyph glyph-name="uni1EA5" unicode="&#x1ea5;" horiz-adv-x="600" 
d="M521 503v-503h-80v91q-22 -47 -66.5 -72.5t-103.5 -25.5q-67 0 -117.5 32t-78 90.5t-27.5 136.5t28 137.5t78.5 92.5t116.5 33q59 0 103 -26t67 -73v87h80zM401 110.5q40 50.5 40 143.5t-40 143t-114 50t-115.5 -51.5t-41.5 -143.5t41 -142t116 -50q74 0 114 50.5z
M436 672h-50l92 143h86zM227 568h-74l120 148h55l120 -148h-74l-73 100z" />
    <glyph glyph-name="uni1EA6" unicode="&#x1ea6;" horiz-adv-x="734" 
d="M632 0l-78 183h-372l-79 -183h-85l313 712h72l313 -712h-84zM211 251h314l-157 366zM495 877l-113 142h85l78 -142h-50zM293 773h-74l120 148h55l120 -148h-74l-73 100z" />
    <glyph glyph-name="uni1EA7" unicode="&#x1ea7;" horiz-adv-x="600" 
d="M521 503v-503h-80v91q-22 -47 -66.5 -72.5t-103.5 -25.5q-67 0 -117.5 32t-78 90.5t-27.5 136.5t28 137.5t78.5 92.5t116.5 33q59 0 103 -26t67 -73v87h80zM401 110.5q40 50.5 40 143.5t-40 143t-114 50t-115.5 -51.5t-41.5 -143.5t41 -142t116 -50q74 0 114 50.5z
M429 672l-113 143h85l78 -143h-50zM227 568h-74l120 148h55l120 -148h-74l-73 100z" />
    <glyph glyph-name="uni1EA8" unicode="&#x1ea8;" horiz-adv-x="734" 
d="M632 0l-78 183h-372l-79 -183h-85l313 712h72l313 -712h-84zM211 251h314l-157 366zM505 877h-54v17q0 17 11.5 26t31.5 18q13 6 19 10t6 10q0 9 -11 14t-30 5q-30 0 -62 -12l-14 42q41 18 82 18q46 0 73 -17.5t27 -46.5q0 -18 -11.5 -27t-34.5 -20q-16 -7 -24.5 -13
t-8.5 -15v-9zM293 773h-74l120 148h55l120 -148h-74l-73 100z" />
    <glyph glyph-name="uni1EA9" unicode="&#x1ea9;" horiz-adv-x="600" 
d="M521 503v-503h-80v91q-22 -47 -66.5 -72.5t-103.5 -25.5q-67 0 -117.5 32t-78 90.5t-27.5 136.5t28 137.5t78.5 92.5t116.5 33q59 0 103 -26t67 -73v87h80zM401 110.5q40 50.5 40 143.5t-40 143t-114 50t-115.5 -51.5t-41.5 -143.5t41 -142t116 -50q74 0 114 50.5z
M439 672h-54v17q0 17 11.5 26t31.5 18q13 6 19 10t6 10q0 8 -11 13.5t-30 5.5q-31 0 -62 -13l-14 44q42 17 82 17q46 0 73 -17.5t27 -46.5q0 -18 -11.5 -27t-34.5 -20q-16 -7 -24.5 -13t-8.5 -15v-9zM227 568h-74l120 148h55l120 -148h-74l-73 100z" />
    <glyph glyph-name="uni1EAA" unicode="&#x1eaa;" horiz-adv-x="734" 
d="M632 0l-78 183h-372l-79 -183h-85l313 712h72l313 -712h-84zM211 251h314l-157 366zM229 1007.5q25 27.5 65 27.5q21 0 39.5 -6.5t45.5 -18.5q15 -7 30.5 -12.5t27.5 -5.5q22 0 34.5 13.5t12.5 31.5h45q0 -43 -25 -71.5t-65 -28.5q-21 0 -39.5 6.5t-45.5 18.5
q-20 10 -33 14.5t-25 4.5q-22 0 -34.5 -13.5t-12.5 -31.5h-45q0 44 25 71.5zM293 773h-74l120 148h55l120 -148h-74l-73 100z" />
    <glyph glyph-name="uni1EAB" unicode="&#x1eab;" horiz-adv-x="600" 
d="M521 503v-503h-80v91q-22 -47 -66.5 -72.5t-103.5 -25.5q-67 0 -117.5 32t-78 90.5t-27.5 136.5t28 137.5t78.5 92.5t116.5 33q59 0 103 -26t67 -73v87h80zM401 110.5q40 50.5 40 143.5t-40 143t-114 50t-115.5 -51.5t-41.5 -143.5t41 -142t116 -50q74 0 114 50.5z
M163 803q25 28 65 28q21 0 39.5 -6.5t45.5 -18.5q15 -7 30.5 -12.5t27.5 -5.5q22 0 34.5 13t12.5 31h45q0 -43 -25 -71t-65 -28q-21 0 -39.5 6.5t-45.5 18.5q-15 7 -30.5 12.5t-27.5 5.5q-22 0 -34.5 -13.5t-12.5 -31.5h-45q0 44 25 72zM227 568h-74l120 148h55l120 -148
h-74l-73 100z" />
    <glyph glyph-name="uni1EAC" unicode="&#x1eac;" horiz-adv-x="734" 
d="M632 0l-78 183h-372l-79 -183h-85l313 712h72l313 -712h-84zM211 251h314l-157 366zM321 -95h93v-89h-93v89zM293 773h-74l120 153h55l120 -153h-74l-73 104z" />
    <glyph glyph-name="uni1EAD" unicode="&#x1ead;" horiz-adv-x="600" 
d="M521 503v-503h-80v91q-22 -47 -66.5 -72.5t-103.5 -25.5q-67 0 -117.5 32t-78 90.5t-27.5 136.5t28 137.5t78.5 92.5t116.5 33q59 0 103 -26t67 -73v87h80zM401 110.5q40 50.5 40 143.5t-40 143t-114 50t-115.5 -51.5t-41.5 -143.5t41 -142t116 -50q74 0 114 50.5z
M254 -95h93v-89h-93v89zM228 568h-75l119 204h57l119 -204h-75l-72 144z" />
    <glyph glyph-name="uni1EAE" unicode="&#x1eae;" horiz-adv-x="734" 
d="M632 0l-78 183h-372l-79 -183h-85l313 712h72l313 -712h-84zM211 251h314l-157 366zM394 877h-55l101 142h86zM267 793.5q-43 25.5 -65 81.5l47 20q23 -41 51.5 -57t66.5 -16q37 0 65.5 16.5t51.5 56.5l47 -20q-22 -56 -65 -81.5t-99 -25.5q-57 0 -100 25.5z" />
    <glyph glyph-name="uni1EAF" unicode="&#x1eaf;" horiz-adv-x="600" 
d="M521 503v-503h-80v91q-22 -47 -66.5 -72.5t-103.5 -25.5q-67 0 -117.5 32t-78 90.5t-27.5 136.5t28 137.5t78.5 92.5t116.5 33q59 0 103 -26t67 -73v87h80zM401 110.5q40 50.5 40 143.5t-40 143t-114 50t-115.5 -51.5t-41.5 -143.5t41 -142t116 -50q74 0 114 50.5z
M328 672h-55l101 143h86zM201 588.5q-43 25.5 -65 81.5l47 20q23 -40 51.5 -56t66.5 -16t66 16t51 56l47 -20q-22 -56 -65 -81.5t-99 -25.5q-57 0 -100 25.5z" />
    <glyph glyph-name="uni1EB0" unicode="&#x1eb0;" horiz-adv-x="734" 
d="M632 0l-78 183h-372l-79 -183h-85l313 712h72l313 -712h-84zM211 251h314l-157 366zM339 877l-132 142h86l101 -142h-55zM267 793.5q-43 25.5 -65 81.5l47 20q23 -41 51.5 -57t66.5 -16q37 0 65.5 16.5t51.5 56.5l47 -20q-22 -56 -65 -81.5t-99 -25.5q-57 0 -100 25.5z
" />
    <glyph glyph-name="uni1EB1" unicode="&#x1eb1;" horiz-adv-x="600" 
d="M521 503v-503h-80v91q-22 -47 -66.5 -72.5t-103.5 -25.5q-67 0 -117.5 32t-78 90.5t-27.5 136.5t28 137.5t78.5 92.5t116.5 33q59 0 103 -26t67 -73v87h80zM401 110.5q40 50.5 40 143.5t-40 143t-114 50t-115.5 -51.5t-41.5 -143.5t41 -142t116 -50q74 0 114 50.5z
M273 672l-132 143h86l101 -143h-55zM201 588.5q-43 25.5 -65 81.5l47 20q23 -40 51.5 -56t66.5 -16t66 16t51 56l47 -20q-22 -56 -65 -81.5t-99 -25.5q-57 0 -100 25.5z" />
    <glyph glyph-name="uni1EB2" unicode="&#x1eb2;" horiz-adv-x="734" 
d="M632 0l-78 183h-372l-79 -183h-85l313 712h72l313 -712h-84zM211 251h314l-157 366zM394 877h-54v17q0 17 11.5 26t31.5 18q13 6 19 10t6 10q0 9 -11 14t-30 5q-30 0 -62 -12l-14 42q41 18 82 18q46 0 72.5 -17.5t26.5 -46.5q0 -18 -11 -27t-34 -20q-16 -7 -24.5 -13
t-8.5 -15v-9zM267 793.5q-43 25.5 -65 81.5l47 20q23 -41 51.5 -57t66.5 -16q37 0 65.5 16.5t51.5 56.5l47 -20q-22 -56 -65 -81.5t-99 -25.5q-57 0 -100 25.5z" />
    <glyph glyph-name="uni1EB3" unicode="&#x1eb3;" horiz-adv-x="600" 
d="M521 503v-503h-80v91q-22 -47 -66.5 -72.5t-103.5 -25.5q-67 0 -117.5 32t-78 90.5t-27.5 136.5t28 137.5t78.5 92.5t116.5 33q59 0 103 -26t67 -73v87h80zM401 110.5q40 50.5 40 143.5t-40 143t-114 50t-115.5 -51.5t-41.5 -143.5t41 -142t116 -50q74 0 114 50.5z
M328 672h-54v17q0 17 11.5 26t31.5 18q13 6 19 10t6 10q0 8 -11 13.5t-30 5.5q-31 0 -62 -13l-14 44q42 17 82 17q46 0 72.5 -17.5t26.5 -46.5q0 -18 -11 -27t-34 -20q-16 -7 -24.5 -13t-8.5 -15v-9zM201 588.5q-43 25.5 -65 81.5l47 20q23 -40 51.5 -56t66.5 -16t66 16
t51 56l47 -20q-22 -56 -65 -81.5t-99 -25.5q-57 0 -100 25.5z" />
    <glyph glyph-name="uni1EB4" unicode="&#x1eb4;" horiz-adv-x="734" 
d="M632 0l-78 183h-372l-79 -183h-85l313 712h72l313 -712h-84zM211 251h314l-157 366zM228.5 998.5q24.5 28.5 65.5 28.5q20 0 38.5 -7.5t46.5 -22.5q23 -12 34.5 -17t23.5 -5q22 0 34.5 14t12.5 35h45q0 -46 -25 -75t-65 -29q-20 0 -38.5 7.5t-46.5 22.5
q-21 12 -33.5 17.5t-24.5 5.5q-22 0 -34.5 -14.5t-12.5 -35.5h-45q0 47 24.5 75.5zM267 793.5q-43 25.5 -65 81.5l47 20q23 -41 51.5 -57t66.5 -16q37 0 65.5 16.5t51.5 56.5l47 -20q-22 -56 -65 -81.5t-99 -25.5q-57 0 -100 25.5z" />
    <glyph glyph-name="uni1EB5" unicode="&#x1eb5;" horiz-adv-x="600" 
d="M521 503v-503h-80v91q-22 -47 -66.5 -72.5t-103.5 -25.5q-67 0 -117.5 32t-78 90.5t-27.5 136.5t28 137.5t78.5 92.5t116.5 33q59 0 103 -26t67 -73v87h80zM401 110.5q40 50.5 40 143.5t-40 143t-114 50t-115.5 -51.5t-41.5 -143.5t41 -142t116 -50q74 0 114 50.5z
M163 794.5q25 28.5 65 28.5q20 0 38.5 -7.5t46.5 -22.5q21 -12 33.5 -17.5t24.5 -5.5q22 0 34.5 14.5t12.5 35.5h45q0 -47 -24.5 -75.5t-65.5 -28.5q-20 0 -38.5 7.5t-46.5 22.5q-23 12 -34.5 17t-23.5 5q-22 0 -34.5 -14t-12.5 -35h-45q0 47 25 75.5zM201 588.5
q-43 25.5 -65 81.5l47 20q23 -40 51.5 -56t66.5 -16t66 16t51 56l47 -20q-22 -56 -65 -81.5t-99 -25.5q-57 0 -100 25.5z" />
    <glyph glyph-name="uni1EB6" unicode="&#x1eb6;" horiz-adv-x="734" 
d="M632 0l-78 183h-372l-79 -183h-85l313 712h72l313 -712h-84zM211 251h314l-157 366zM321 -95h93v-89h-93v89zM267 810.5q-43 25.5 -65 81.5l51 22q23 -40 50 -55.5t64 -15.5t63.5 15.5t49.5 55.5l51 -22q-22 -56 -65 -81.5t-99 -25.5q-57 0 -100 25.5z" />
    <glyph glyph-name="uni1EB7" unicode="&#x1eb7;" horiz-adv-x="600" 
d="M521 503v-503h-80v91q-22 -47 -66.5 -72.5t-103.5 -25.5q-67 0 -117.5 32t-78 90.5t-27.5 136.5t28 137.5t78.5 92.5t116.5 33q59 0 103 -26t67 -73v87h80zM401 110.5q40 50.5 40 143.5t-40 143t-114 50t-115.5 -51.5t-41.5 -143.5t41 -142t116 -50q74 0 114 50.5z
M254 -95h93v-89h-93v89zM200 629.5q-45 31.5 -66 96.5l51 22q22 -48 51 -69t65 -21q73 0 115 90l51 -22q-21 -65 -65.5 -96.5t-100.5 -31.5t-101 31.5z" />
    <glyph glyph-name="uni1EB8" unicode="&#x1eb8;" horiz-adv-x="588" 
d="M88 0v712h450v-68h-369v-248h349v-69h-349v-259h369v-68h-450zM280 -95h93v-89h-93v89z" />
    <glyph glyph-name="uni1EB9" unicode="&#x1eb9;" horiz-adv-x="544" 
d="M499 254h-369q1 -96 44.5 -145t126.5 -49q88 0 162 59l27 -59q-33 -31 -84.5 -49t-105.5 -18q-118 0 -185 69.5t-67 190.5q0 77 30 136.5t84 92.5t123 33q100 0 157 -65.5t57 -180.5v-15zM183.5 414q-39.5 -38 -50.5 -107h293q-6 71 -41.5 108t-98.5 37t-102.5 -38z
M252 -95h93v-89h-93v89z" />
    <glyph glyph-name="uni1EBA" unicode="&#x1eba;" horiz-adv-x="588" 
d="M88 0v712h450v-68h-369v-248h349v-69h-349v-259h369v-68h-450zM354 773h-54v18q0 17 10.5 26.5t30.5 20.5q15 8 21 13t6 12q0 9 -11 14t-30 5q-30 0 -62 -12l-14 43q39 17 82 17q46 0 72.5 -17.5t26.5 -46.5q0 -20 -12 -31t-34 -21q-17 -9 -24.5 -15t-7.5 -16v-10z" />
    <glyph glyph-name="uni1EBB" unicode="&#x1ebb;" horiz-adv-x="544" 
d="M499 254h-369q1 -96 44.5 -145t126.5 -49q88 0 162 59l27 -59q-33 -31 -84.5 -49t-105.5 -18q-118 0 -185 69.5t-67 190.5q0 77 30 136.5t84 92.5t123 33q100 0 157 -65.5t57 -180.5v-15zM183.5 414q-39.5 -38 -50.5 -107h293q-6 71 -41.5 108t-98.5 37t-102.5 -38z
M313 568h-53v28q0 20 10 34.5t29 32.5q14 14 19.5 21t5.5 16q0 12 -10.5 18.5t-30.5 6.5q-27 0 -59 -11l-15 44q39 18 81 18q47 0 73.5 -20t26.5 -50q0 -23 -10.5 -37t-31.5 -32q-17 -13 -26 -24.5t-9 -27.5v-17z" />
    <glyph glyph-name="uni1EBC" unicode="&#x1ebc;" horiz-adv-x="588" 
d="M88 0v712h450v-68h-369v-248h349v-69h-349v-259h369v-68h-450zM188.5 879.5q24.5 30.5 65.5 30.5q21 0 40 -8.5t45 -24.5q21 -13 33.5 -19t24.5 -6q22 0 34.5 16t12.5 39h45q0 -55 -24.5 -85.5t-65.5 -30.5q-21 0 -40 8.5t-45 24.5q-21 13 -33.5 19t-24.5 6
q-22 0 -34.5 -16t-12.5 -39h-45q0 55 24.5 85.5z" />
    <glyph glyph-name="uni1EBD" unicode="&#x1ebd;" horiz-adv-x="544" 
d="M499 254h-369q1 -96 44.5 -145t126.5 -49q88 0 162 59l27 -59q-33 -31 -84.5 -49t-105.5 -18q-118 0 -185 69.5t-67 190.5q0 77 30 136.5t84 92.5t123 33q100 0 157 -65.5t57 -180.5v-15zM183.5 414q-39.5 -38 -50.5 -107h293q-6 71 -41.5 108t-98.5 37t-102.5 -38z
M146.5 700q24.5 30 65.5 30q21 0 40 -8.5t45 -24.5q21 -13 33.5 -19t24.5 -6q22 0 34.5 16t12.5 39h45q0 -55 -24.5 -85t-65.5 -30q-21 0 -40 8.5t-45 24.5q-21 13 -33.5 19t-24.5 6q-22 0 -34.5 -16t-12.5 -39h-45q0 55 24.5 85z" />
    <glyph glyph-name="uni1EBE" unicode="&#x1ebe;" horiz-adv-x="588" 
d="M88 0v712h450v-68h-369v-248h349v-69h-349v-259h369v-68h-450zM462 877h-50l92 142h86zM253 773h-74l120 148h55l120 -148h-74l-73 100z" />
    <glyph glyph-name="uni1EBF" unicode="&#x1ebf;" horiz-adv-x="544" 
d="M499 254h-369q1 -96 44.5 -145t126.5 -49q88 0 162 59l27 -59q-33 -31 -84.5 -49t-105.5 -18q-118 0 -185 69.5t-67 190.5q0 77 30 136.5t84 92.5t123 33q100 0 157 -65.5t57 -180.5v-15zM183.5 414q-39.5 -38 -50.5 -107h293q-6 71 -41.5 108t-98.5 37t-102.5 -38z
M420 672h-50l92 143h86zM211 568h-74l120 148h55l120 -148h-74l-73 100z" />
    <glyph glyph-name="uni1EC0" unicode="&#x1ec0;" horiz-adv-x="588" 
d="M88 0v712h450v-68h-369v-248h349v-69h-349v-259h369v-68h-450zM455 877l-113 142h85l78 -142h-50zM253 773h-74l120 148h55l120 -148h-74l-73 100z" />
    <glyph glyph-name="uni1EC1" unicode="&#x1ec1;" horiz-adv-x="544" 
d="M499 254h-369q1 -96 44.5 -145t126.5 -49q88 0 162 59l27 -59q-33 -31 -84.5 -49t-105.5 -18q-118 0 -185 69.5t-67 190.5q0 77 30 136.5t84 92.5t123 33q100 0 157 -65.5t57 -180.5v-15zM183.5 414q-39.5 -38 -50.5 -107h293q-6 71 -41.5 108t-98.5 37t-102.5 -38z
M413 672l-113 143h85l78 -143h-50zM211 568h-74l120 148h55l120 -148h-74l-73 100z" />
    <glyph glyph-name="uni1EC2" unicode="&#x1ec2;" horiz-adv-x="588" 
d="M88 0v712h450v-68h-369v-248h349v-69h-349v-259h369v-68h-450zM465 877h-54v17q0 17 11.5 26t31.5 18q13 6 19 10t6 10q0 9 -11 14t-30 5q-30 0 -62 -12l-14 42q41 18 82 18q46 0 73 -17.5t27 -46.5q0 -18 -11.5 -27t-34.5 -20q-16 -7 -24.5 -13t-8.5 -15v-9zM253 773
h-74l120 148h55l120 -148h-74l-73 100z" />
    <glyph glyph-name="uni1EC3" unicode="&#x1ec3;" horiz-adv-x="544" 
d="M499 254h-369q1 -96 44.5 -145t126.5 -49q88 0 162 59l27 -59q-33 -31 -84.5 -49t-105.5 -18q-118 0 -185 69.5t-67 190.5q0 77 30 136.5t84 92.5t123 33q100 0 157 -65.5t57 -180.5v-15zM183.5 414q-39.5 -38 -50.5 -107h293q-6 71 -41.5 108t-98.5 37t-102.5 -38z
M423 672h-54v17q0 17 11.5 26t31.5 18q13 6 19 10t6 10q0 8 -11 13.5t-30 5.5q-31 0 -62 -13l-14 44q42 17 82 17q46 0 73 -17.5t27 -46.5q0 -18 -11.5 -27t-34.5 -20q-16 -7 -24.5 -13t-8.5 -15v-9zM211 568h-74l120 148h55l120 -148h-74l-73 100z" />
    <glyph glyph-name="uni1EC4" unicode="&#x1ec4;" horiz-adv-x="588" 
d="M88 0v712h450v-68h-369v-248h349v-69h-349v-259h369v-68h-450zM189 1007.5q25 27.5 65 27.5q21 0 39.5 -6.5t45.5 -18.5q15 -7 30.5 -12.5t27.5 -5.5q22 0 34.5 13.5t12.5 31.5h45q0 -43 -25 -71.5t-65 -28.5q-21 0 -39.5 6.5t-45.5 18.5q-20 10 -33 14.5t-25 4.5
q-22 0 -34.5 -13.5t-12.5 -31.5h-45q0 44 25 71.5zM253 773h-74l120 148h55l120 -148h-74l-73 100z" />
    <glyph glyph-name="uni1EC5" unicode="&#x1ec5;" horiz-adv-x="544" 
d="M499 254h-369q1 -96 44.5 -145t126.5 -49q88 0 162 59l27 -59q-33 -31 -84.5 -49t-105.5 -18q-118 0 -185 69.5t-67 190.5q0 77 30 136.5t84 92.5t123 33q100 0 157 -65.5t57 -180.5v-15zM183.5 414q-39.5 -38 -50.5 -107h293q-6 71 -41.5 108t-98.5 37t-102.5 -38z
M147 803q25 28 65 28q21 0 39.5 -6.5t45.5 -18.5q15 -7 30.5 -12.5t27.5 -5.5q22 0 34.5 13t12.5 31h45q0 -43 -25 -71t-65 -28q-21 0 -39.5 6.5t-45.5 18.5q-15 7 -30.5 12.5t-27.5 5.5q-22 0 -34.5 -13.5t-12.5 -31.5h-45q0 44 25 72zM211 568h-74l120 148h55l120 -148
h-74l-73 100z" />
    <glyph glyph-name="uni1EC6" unicode="&#x1ec6;" horiz-adv-x="588" 
d="M88 0v712h450v-68h-369v-248h349v-69h-349v-259h369v-68h-450zM280 -95h93v-89h-93v89zM253 773h-74l120 153h55l120 -153h-74l-73 104z" />
    <glyph glyph-name="uni1EC7" unicode="&#x1ec7;" horiz-adv-x="544" 
d="M499 254h-369q1 -96 44.5 -145t126.5 -49q88 0 162 59l27 -59q-33 -31 -84.5 -49t-105.5 -18q-118 0 -185 69.5t-67 190.5q0 77 30 136.5t84 92.5t123 33q100 0 157 -65.5t57 -180.5v-15zM183.5 414q-39.5 -38 -50.5 -107h293q-6 71 -41.5 108t-98.5 37t-102.5 -38z
M252 -95h93v-89h-93v89zM212 568h-75l119 204h57l119 -204h-75l-72 144z" />
    <glyph glyph-name="uni1EC8" unicode="&#x1ec8;" horiz-adv-x="258" 
d="M88 0v712h82v-712h-82zM156 773h-54v18q0 17 10.5 26.5t30.5 20.5q15 8 21 13t6 12q0 9 -11 14t-30 5q-30 0 -62 -12l-14 43q39 17 82 17q46 0 72.5 -17.5t26.5 -46.5q0 -20 -12 -31t-34 -21q-17 -9 -24.5 -15t-7.5 -16v-10z" />
    <glyph glyph-name="uni1EC9" unicode="&#x1ec9;" horiz-adv-x="238" 
d="M78 0v503h81v-503h-81zM148 568h-53v28q0 20 10 34.5t29 32.5q14 14 19.5 21t5.5 16q0 12 -10.5 18.5t-30.5 6.5q-27 0 -59 -11l-15 44q39 18 81 18q47 0 73.5 -20t26.5 -50q0 -23 -10.5 -37t-31.5 -32q-17 -13 -26 -24.5t-9 -27.5v-17z" />
    <glyph glyph-name="uni1ECA" unicode="&#x1eca;" horiz-adv-x="258" 
d="M88 0v712h82v-712h-82zM82 -95h93v-89h-93v89z" />
    <glyph glyph-name="uni1ECB" unicode="&#x1ecb;" horiz-adv-x="238" 
d="M78 0v503h81v-503h-81zM70 716h99v-92h-99v92zM71 -95h93v-89h-93v89z" />
    <glyph glyph-name="uni1ECC" unicode="&#x1ecc;" horiz-adv-x="772" 
d="M214 36q-73 44 -112.5 126.5t-39.5 193.5q0 112 39 194t112 126t173 44t173 -44t112 -126t39 -193q0 -112 -39.5 -194t-112.5 -126.5t-172 -44.5t-172 44zM562 139q63 77 63 218t-62.5 217t-176.5 76t-177 -76.5t-63 -216.5q0 -141 63 -218t177 -77q113 0 176 77z
M339 -95h93v-89h-93v89z" />
    <glyph glyph-name="uni1ECD" unicode="&#x1ecd;" horiz-adv-x="572" 
d="M161 25q-54 32 -83.5 91t-29.5 138t29.5 138t83.5 91t125 32t125 -32t83.5 -91t29.5 -138t-29.5 -138t-83.5 -91t-125 -32t-125 32zM401 109.5q40 49.5 40 144.5q0 92 -41 142.5t-114 50.5q-74 0 -115 -50.5t-41 -142.5q0 -95 40.5 -144.5t115.5 -49.5t115 49.5zM239 -95
h93v-89h-93v89z" />
    <glyph glyph-name="uni1ECE" unicode="&#x1ece;" horiz-adv-x="772" 
d="M214 36q-73 44 -112.5 126.5t-39.5 193.5q0 112 39 194t112 126t173 44t173 -44t112 -126t39 -193q0 -112 -39.5 -194t-112.5 -126.5t-172 -44.5t-172 44zM562 139q63 77 63 218t-62.5 217t-176.5 76t-177 -76.5t-63 -216.5q0 -141 63 -218t177 -77q113 0 176 77z
M412 773h-54v18q0 17 10.5 26.5t30.5 20.5q15 8 21 13t6 12q0 9 -11 14t-30 5q-30 0 -62 -12l-14 43q39 17 82 17q46 0 72.5 -17.5t26.5 -46.5q0 -20 -12 -31t-34 -21q-17 -9 -24.5 -15t-7.5 -16v-10z" />
    <glyph glyph-name="uni1ECF" unicode="&#x1ecf;" horiz-adv-x="572" 
d="M161 25q-54 32 -83.5 91t-29.5 138t29.5 138t83.5 91t125 32t125 -32t83.5 -91t29.5 -138t-29.5 -138t-83.5 -91t-125 -32t-125 32zM401 109.5q40 49.5 40 144.5q0 92 -41 142.5t-114 50.5q-74 0 -115 -50.5t-41 -142.5q0 -95 40.5 -144.5t115.5 -49.5t115 49.5zM314 568
h-53v28q0 20 10 34.5t29 32.5q14 14 19.5 21t5.5 16q0 12 -10.5 18.5t-30.5 6.5q-27 0 -59 -11l-15 44q39 18 81 18q47 0 73.5 -20t26.5 -50q0 -23 -10.5 -37t-31.5 -32q-17 -13 -26 -24.5t-9 -27.5v-17z" />
    <glyph glyph-name="uni1ED0" unicode="&#x1ed0;" horiz-adv-x="772" 
d="M214 36q-73 44 -112.5 126.5t-39.5 193.5q0 112 39 194t112 126t173 44t173 -44t112 -126t39 -193q0 -112 -39.5 -194t-112.5 -126.5t-172 -44.5t-172 44zM562 139q63 77 63 218t-62.5 217t-176.5 76t-177 -76.5t-63 -216.5q0 -141 63 -218t177 -77q113 0 176 77z
M520 877h-50l92 142h86zM311 773h-74l120 148h55l120 -148h-74l-73 100z" />
    <glyph glyph-name="uni1ED1" unicode="&#x1ed1;" horiz-adv-x="572" 
d="M161 25q-54 32 -83.5 91t-29.5 138t29.5 138t83.5 91t125 32t125 -32t83.5 -91t29.5 -138t-29.5 -138t-83.5 -91t-125 -32t-125 32zM401 109.5q40 49.5 40 144.5q0 92 -41 142.5t-114 50.5q-74 0 -115 -50.5t-41 -142.5q0 -95 40.5 -144.5t115.5 -49.5t115 49.5zM421 672
h-50l92 143h86zM212 568h-74l120 148h55l120 -148h-74l-73 100z" />
    <glyph glyph-name="uni1ED2" unicode="&#x1ed2;" horiz-adv-x="772" 
d="M214 36q-73 44 -112.5 126.5t-39.5 193.5q0 112 39 194t112 126t173 44t173 -44t112 -126t39 -193q0 -112 -39.5 -194t-112.5 -126.5t-172 -44.5t-172 44zM562 139q63 77 63 218t-62.5 217t-176.5 76t-177 -76.5t-63 -216.5q0 -141 63 -218t177 -77q113 0 176 77z
M513 877l-113 142h85l78 -142h-50zM311 773h-74l120 148h55l120 -148h-74l-73 100z" />
    <glyph glyph-name="uni1ED3" unicode="&#x1ed3;" horiz-adv-x="572" 
d="M161 25q-54 32 -83.5 91t-29.5 138t29.5 138t83.5 91t125 32t125 -32t83.5 -91t29.5 -138t-29.5 -138t-83.5 -91t-125 -32t-125 32zM401 109.5q40 49.5 40 144.5q0 92 -41 142.5t-114 50.5q-74 0 -115 -50.5t-41 -142.5q0 -95 40.5 -144.5t115.5 -49.5t115 49.5zM414 672
l-113 143h85l78 -143h-50zM212 568h-74l120 148h55l120 -148h-74l-73 100z" />
    <glyph glyph-name="uni1ED4" unicode="&#x1ed4;" horiz-adv-x="772" 
d="M214 36q-73 44 -112.5 126.5t-39.5 193.5q0 112 39 194t112 126t173 44t173 -44t112 -126t39 -193q0 -112 -39.5 -194t-112.5 -126.5t-172 -44.5t-172 44zM562 139q63 77 63 218t-62.5 217t-176.5 76t-177 -76.5t-63 -216.5q0 -141 63 -218t177 -77q113 0 176 77z
M523 877h-54v17q0 17 11.5 26t31.5 18q13 6 19 10t6 10q0 9 -11 14t-30 5q-30 0 -62 -12l-14 42q41 18 82 18q46 0 73 -17.5t27 -46.5q0 -18 -11.5 -27t-34.5 -20q-16 -7 -24.5 -13t-8.5 -15v-9zM311 773h-74l120 148h55l120 -148h-74l-73 100z" />
    <glyph glyph-name="uni1ED5" unicode="&#x1ed5;" horiz-adv-x="572" 
d="M161 25q-54 32 -83.5 91t-29.5 138t29.5 138t83.5 91t125 32t125 -32t83.5 -91t29.5 -138t-29.5 -138t-83.5 -91t-125 -32t-125 32zM401 109.5q40 49.5 40 144.5q0 92 -41 142.5t-114 50.5q-74 0 -115 -50.5t-41 -142.5q0 -95 40.5 -144.5t115.5 -49.5t115 49.5zM424 672
h-54v17q0 17 11.5 26t31.5 18q13 6 19 10t6 10q0 8 -11 13.5t-30 5.5q-31 0 -62 -13l-14 44q42 17 82 17q46 0 73 -17.5t27 -46.5q0 -18 -11.5 -27t-34.5 -20q-16 -7 -24.5 -13t-8.5 -15v-9zM212 568h-74l120 148h55l120 -148h-74l-73 100z" />
    <glyph glyph-name="uni1ED6" unicode="&#x1ed6;" horiz-adv-x="772" 
d="M214 36q-73 44 -112.5 126.5t-39.5 193.5q0 112 39 194t112 126t173 44t173 -44t112 -126t39 -193q0 -112 -39.5 -194t-112.5 -126.5t-172 -44.5t-172 44zM562 139q63 77 63 218t-62.5 217t-176.5 76t-177 -76.5t-63 -216.5q0 -141 63 -218t177 -77q113 0 176 77z
M247 1007.5q25 27.5 65 27.5q21 0 39.5 -6.5t45.5 -18.5q15 -7 30.5 -12.5t27.5 -5.5q22 0 34.5 13.5t12.5 31.5h45q0 -43 -25 -71.5t-65 -28.5q-21 0 -39.5 6.5t-45.5 18.5q-20 10 -33 14.5t-25 4.5q-22 0 -34.5 -13.5t-12.5 -31.5h-45q0 44 25 71.5zM311 773h-74l120 148
h55l120 -148h-74l-73 100z" />
    <glyph glyph-name="uni1ED7" unicode="&#x1ed7;" horiz-adv-x="572" 
d="M161 25q-54 32 -83.5 91t-29.5 138t29.5 138t83.5 91t125 32t125 -32t83.5 -91t29.5 -138t-29.5 -138t-83.5 -91t-125 -32t-125 32zM401 109.5q40 49.5 40 144.5q0 92 -41 142.5t-114 50.5q-74 0 -115 -50.5t-41 -142.5q0 -95 40.5 -144.5t115.5 -49.5t115 49.5zM148 803
q25 28 65 28q21 0 39.5 -6.5t45.5 -18.5q15 -7 30.5 -12.5t27.5 -5.5q22 0 34.5 13t12.5 31h45q0 -43 -25 -71t-65 -28q-21 0 -39.5 6.5t-45.5 18.5q-15 7 -30.5 12.5t-27.5 5.5q-22 0 -34.5 -13.5t-12.5 -31.5h-45q0 44 25 72zM212 568h-74l120 148h55l120 -148h-74
l-73 100z" />
    <glyph glyph-name="uni1ED8" unicode="&#x1ed8;" horiz-adv-x="772" 
d="M214 36q-73 44 -112.5 126.5t-39.5 193.5q0 112 39 194t112 126t173 44t173 -44t112 -126t39 -193q0 -112 -39.5 -194t-112.5 -126.5t-172 -44.5t-172 44zM562 139q63 77 63 218t-62.5 217t-176.5 76t-177 -76.5t-63 -216.5q0 -141 63 -218t177 -77q113 0 176 77z
M339 -95h93v-89h-93v89zM311 773h-74l120 153h55l120 -153h-74l-73 104z" />
    <glyph glyph-name="uni1ED9" unicode="&#x1ed9;" horiz-adv-x="572" 
d="M161 25q-54 32 -83.5 91t-29.5 138t29.5 138t83.5 91t125 32t125 -32t83.5 -91t29.5 -138t-29.5 -138t-83.5 -91t-125 -32t-125 32zM401 109.5q40 49.5 40 144.5q0 92 -41 142.5t-114 50.5q-74 0 -115 -50.5t-41 -142.5q0 -95 40.5 -144.5t115.5 -49.5t115 49.5zM239 -95
h93v-89h-93v89zM213 568h-75l119 204h57l119 -204h-75l-72 144z" />
    <glyph glyph-name="uni1EDA" unicode="&#x1eda;" horiz-adv-x="772" 
d="M674.5 707.5q-35.5 -39.5 -98.5 -45.5q65 -45 99.5 -123t34.5 -182q0 -112 -39.5 -194t-112.5 -126.5t-172 -44.5t-172 44.5t-112.5 126.5t-39.5 193q0 112 39 194t113 126t175 44q26 0 74 -4q44 -4 63 -4q61 1 86 26t25 85v15h73v-27q0 -64 -35.5 -103.5zM562.5 574
q-62.5 76 -176.5 76t-177 -76.5t-63 -216.5q0 -141 63 -218t177 -77q113 0 176 77t63 218t-62.5 217zM413 773h-57l102 153h89z" />
    <glyph glyph-name="uni1EDB" unicode="&#x1edb;" horiz-adv-x="572" 
d="M501.5 519q-24.5 -37 -69.5 -53q44 -33 68 -87.5t24 -124.5q0 -79 -29.5 -138t-83.5 -91t-125 -32t-125 32t-83.5 91t-29.5 138t29.5 138t83.5 91t125 32q17 0 45 -4q17 -3 28 -3q49 0 72 26t23 87v15h72v-26q0 -54 -24.5 -91zM401 109.5q40 49.5 40 144.5
q0 92 -41 142.5t-114 50.5q-74 0 -115 -50.5t-41 -142.5q0 -95 40.5 -144.5t115.5 -49.5t115 49.5zM314 568h-57l100 204h94z" />
    <glyph glyph-name="uni1EDC" unicode="&#x1edc;" horiz-adv-x="772" 
d="M674.5 707.5q-35.5 -39.5 -98.5 -45.5q65 -45 99.5 -123t34.5 -182q0 -112 -39.5 -194t-112.5 -126.5t-172 -44.5t-172 44.5t-112.5 126.5t-39.5 193q0 112 39 194t113 126t175 44q26 0 74 -4q44 -4 63 -4q61 1 86 26t25 85v15h73v-27q0 -64 -35.5 -103.5zM562.5 574
q-62.5 76 -176.5 76t-177 -76.5t-63 -216.5q0 -141 63 -218t177 -77q113 0 176 77t63 218t-62.5 217zM356 773l-134 153h89l102 -153h-57z" />
    <glyph glyph-name="uni1EDD" unicode="&#x1edd;" horiz-adv-x="572" 
d="M501.5 519q-24.5 -37 -69.5 -53q44 -33 68 -87.5t24 -124.5q0 -79 -29.5 -138t-83.5 -91t-125 -32t-125 32t-83.5 91t-29.5 138t29.5 138t83.5 91t125 32q17 0 45 -4q17 -3 28 -3q49 0 72 26t23 87v15h72v-26q0 -54 -24.5 -91zM401 109.5q40 49.5 40 144.5
q0 92 -41 142.5t-114 50.5q-74 0 -115 -50.5t-41 -142.5q0 -95 40.5 -144.5t115.5 -49.5t115 49.5zM257 568l-137 204h94l100 -204h-57z" />
    <glyph glyph-name="uni1EDE" unicode="&#x1ede;" horiz-adv-x="772" 
d="M674.5 707.5q-35.5 -39.5 -98.5 -45.5q65 -45 99.5 -123t34.5 -182q0 -112 -39.5 -194t-112.5 -126.5t-172 -44.5t-172 44.5t-112.5 126.5t-39.5 193q0 112 39 194t113 126t175 44q26 0 74 -4q44 -4 63 -4q61 1 86 26t25 85v15h73v-27q0 -64 -35.5 -103.5zM562.5 574
q-62.5 76 -176.5 76t-177 -76.5t-63 -216.5q0 -141 63 -218t177 -77q113 0 176 77t63 218t-62.5 217zM412 773h-54v18q0 17 10.5 26.5t30.5 20.5q15 8 21 13t6 12q0 9 -11 14t-30 5q-30 0 -62 -12l-14 43q39 17 82 17q46 0 72.5 -17.5t26.5 -46.5q0 -20 -12 -31t-34 -21
q-17 -9 -24.5 -15t-7.5 -16v-10z" />
    <glyph glyph-name="uni1EDF" unicode="&#x1edf;" horiz-adv-x="572" 
d="M501.5 519q-24.5 -37 -69.5 -53q44 -33 68 -87.5t24 -124.5q0 -79 -29.5 -138t-83.5 -91t-125 -32t-125 32t-83.5 91t-29.5 138t29.5 138t83.5 91t125 32q17 0 45 -4q17 -3 28 -3q49 0 72 26t23 87v15h72v-26q0 -54 -24.5 -91zM401 109.5q40 49.5 40 144.5
q0 92 -41 142.5t-114 50.5q-74 0 -115 -50.5t-41 -142.5q0 -95 40.5 -144.5t115.5 -49.5t115 49.5zM314 568h-53v28q0 20 10 34.5t29 32.5q14 14 19.5 21t5.5 16q0 12 -10.5 18.5t-30.5 6.5q-27 0 -59 -11l-15 44q39 18 81 18q47 0 73.5 -20t26.5 -50q0 -23 -10.5 -37
t-31.5 -32q-17 -13 -26 -24.5t-9 -27.5v-17z" />
    <glyph glyph-name="uni1EE0" unicode="&#x1ee0;" horiz-adv-x="772" 
d="M674.5 707.5q-35.5 -39.5 -98.5 -45.5q65 -45 99.5 -123t34.5 -182q0 -112 -39.5 -194t-112.5 -126.5t-172 -44.5t-172 44.5t-112.5 126.5t-39.5 193q0 112 39 194t113 126t175 44q26 0 74 -4q44 -4 63 -4q61 1 86 26t25 85v15h73v-27q0 -64 -35.5 -103.5zM562.5 574
q-62.5 76 -176.5 76t-177 -76.5t-63 -216.5q0 -141 63 -218t177 -77q113 0 176 77t63 218t-62.5 217zM246.5 879.5q24.5 30.5 65.5 30.5q21 0 40 -8.5t45 -24.5q21 -13 33.5 -19t24.5 -6q22 0 34.5 16t12.5 39h45q0 -55 -24.5 -85.5t-65.5 -30.5q-21 0 -40 8.5t-45 24.5
q-21 13 -33.5 19t-24.5 6q-22 0 -34.5 -16t-12.5 -39h-45q0 55 24.5 85.5z" />
    <glyph glyph-name="uni1EE1" unicode="&#x1ee1;" horiz-adv-x="572" 
d="M501.5 519q-24.5 -37 -69.5 -53q44 -33 68 -87.5t24 -124.5q0 -79 -29.5 -138t-83.5 -91t-125 -32t-125 32t-83.5 91t-29.5 138t29.5 138t83.5 91t125 32q17 0 45 -4q17 -3 28 -3q49 0 72 26t23 87v15h72v-26q0 -54 -24.5 -91zM401 109.5q40 49.5 40 144.5
q0 92 -41 142.5t-114 50.5q-74 0 -115 -50.5t-41 -142.5q0 -95 40.5 -144.5t115.5 -49.5t115 49.5zM147.5 700q24.5 30 65.5 30q21 0 40 -8.5t45 -24.5q21 -13 33.5 -19t24.5 -6q22 0 34.5 16t12.5 39h45q0 -55 -24.5 -85t-65.5 -30q-21 0 -40 8.5t-45 24.5q-21 13 -33.5 19
t-24.5 6q-22 0 -34.5 -16t-12.5 -39h-45q0 55 24.5 85z" />
    <glyph glyph-name="uni1EE2" unicode="&#x1ee2;" horiz-adv-x="772" 
d="M674.5 707.5q-35.5 -39.5 -98.5 -45.5q65 -45 99.5 -123t34.5 -182q0 -112 -39.5 -194t-112.5 -126.5t-172 -44.5t-172 44.5t-112.5 126.5t-39.5 193q0 112 39 194t113 126t175 44q26 0 74 -4q44 -4 63 -4q61 1 86 26t25 85v15h73v-27q0 -64 -35.5 -103.5zM562.5 574
q-62.5 76 -176.5 76t-177 -76.5t-63 -216.5q0 -141 63 -218t177 -77q113 0 176 77t63 218t-62.5 217zM339 -95h93v-89h-93v89z" />
    <glyph glyph-name="uni1EE3" unicode="&#x1ee3;" horiz-adv-x="572" 
d="M501.5 519q-24.5 -37 -69.5 -53q44 -33 68 -87.5t24 -124.5q0 -79 -29.5 -138t-83.5 -91t-125 -32t-125 32t-83.5 91t-29.5 138t29.5 138t83.5 91t125 32q17 0 45 -4q17 -3 28 -3q49 0 72 26t23 87v15h72v-26q0 -54 -24.5 -91zM401 109.5q40 49.5 40 144.5
q0 92 -41 142.5t-114 50.5q-74 0 -115 -50.5t-41 -142.5q0 -95 40.5 -144.5t115.5 -49.5t115 49.5zM239 -95h93v-89h-93v89z" />
    <glyph glyph-name="uni1EE4" unicode="&#x1ee4;" horiz-adv-x="731" 
d="M154.5 64.5q-71.5 72.5 -71.5 214.5v433h81v-440q0 -104 51 -157t151 -53q99 0 149.5 53t50.5 157v440h82v-433q0 -141 -72 -214t-210 -73q-140 0 -211.5 72.5zM319 -95h93v-89h-93v89z" />
    <glyph glyph-name="uni1EE5" unicode="&#x1ee5;" horiz-adv-x="577" 
d="M499 503v-503h-79v87q-24 -46 -67 -70t-97 -24q-89 0 -135 50t-46 148v312h81v-310q0 -68 28 -100t85 -32q67 0 108 43.5t41 114.5v284h81zM242 -95h93v-89h-93v89z" />
    <glyph glyph-name="uni1EE6" unicode="&#x1ee6;" horiz-adv-x="731" 
d="M154.5 64.5q-71.5 72.5 -71.5 214.5v433h81v-440q0 -104 51 -157t151 -53q99 0 149.5 53t50.5 157v440h82v-433q0 -141 -72 -214t-210 -73q-140 0 -211.5 72.5zM393 773h-54v18q0 17 10.5 26.5t30.5 20.5q15 8 21 13t6 12q0 9 -11 14t-30 5q-30 0 -62 -12l-14 43
q39 17 82 17q46 0 72.5 -17.5t26.5 -46.5q0 -20 -12 -31t-34 -21q-17 -9 -24.5 -15t-7.5 -16v-10z" />
    <glyph glyph-name="uni1EE7" unicode="&#x1ee7;" horiz-adv-x="577" 
d="M499 503v-503h-79v87q-24 -46 -67 -70t-97 -24q-89 0 -135 50t-46 148v312h81v-310q0 -68 28 -100t85 -32q67 0 108 43.5t41 114.5v284h81zM317 568h-53v28q0 20 10 34.5t29 32.5q14 14 19.5 21t5.5 16q0 12 -10.5 18.5t-30.5 6.5q-27 0 -59 -11l-15 44q39 18 81 18
q47 0 73.5 -20t26.5 -50q0 -23 -10.5 -37t-31.5 -32q-17 -13 -26 -24.5t-9 -27.5v-17z" />
    <glyph glyph-name="uni1EE8" unicode="&#x1ee8;" horiz-adv-x="731" 
d="M766 838v-27q0 -60 -31 -98t-87 -49v-385q0 -141 -72 -214t-210 -73q-140 0 -211.5 72.5t-71.5 214.5v433h81v-440q0 -104 51 -157t151 -53q99 0 149.5 53t50.5 157v440h24q56 1 80 26t24 85v15h72zM394 773h-57l102 153h89z" />
    <glyph glyph-name="uni1EE9" unicode="&#x1ee9;" horiz-adv-x="591" 
d="M620 636v-26q0 -63 -31.5 -103t-89.5 -49v-458h-79v87q-24 -46 -67 -70t-97 -24q-89 0 -135 50t-46 148v312h81v-310q0 -68 28 -100t85 -32q67 0 108 43.5t41 114.5v284h23q57 0 82 27.5t25 90.5v15h72zM317 568h-57l100 204h94z" />
    <glyph glyph-name="uni1EEA" unicode="&#x1eea;" horiz-adv-x="731" 
d="M766 838v-27q0 -60 -31 -98t-87 -49v-385q0 -141 -72 -214t-210 -73q-140 0 -211.5 72.5t-71.5 214.5v433h81v-440q0 -104 51 -157t151 -53q99 0 149.5 53t50.5 157v440h24q56 1 80 26t24 85v15h72zM337 773l-134 153h89l102 -153h-57z" />
    <glyph glyph-name="uni1EEB" unicode="&#x1eeb;" horiz-adv-x="591" 
d="M620 636v-26q0 -63 -31.5 -103t-89.5 -49v-458h-79v87q-24 -46 -67 -70t-97 -24q-89 0 -135 50t-46 148v312h81v-310q0 -68 28 -100t85 -32q67 0 108 43.5t41 114.5v284h23q57 0 82 27.5t25 90.5v15h72zM260 568l-137 204h94l100 -204h-57z" />
    <glyph glyph-name="uni1EEC" unicode="&#x1eec;" horiz-adv-x="731" 
d="M766 838v-27q0 -60 -31 -98t-87 -49v-385q0 -141 -72 -214t-210 -73q-140 0 -211.5 72.5t-71.5 214.5v433h81v-440q0 -104 51 -157t151 -53q99 0 149.5 53t50.5 157v440h24q56 1 80 26t24 85v15h72zM393 773h-54v18q0 17 10.5 26.5t30.5 20.5q15 8 21 13t6 12q0 9 -11 14
t-30 5q-30 0 -62 -12l-14 43q39 17 82 17q46 0 72.5 -17.5t26.5 -46.5q0 -20 -12 -31t-34 -21q-17 -9 -24.5 -15t-7.5 -16v-10z" />
    <glyph glyph-name="uni1EED" unicode="&#x1eed;" horiz-adv-x="591" 
d="M620 636v-26q0 -63 -31.5 -103t-89.5 -49v-458h-79v87q-24 -46 -67 -70t-97 -24q-89 0 -135 50t-46 148v312h81v-310q0 -68 28 -100t85 -32q67 0 108 43.5t41 114.5v284h23q57 0 82 27.5t25 90.5v15h72zM317 568h-53v28q0 20 10 34.5t29 32.5q14 14 19.5 21t5.5 16
q0 12 -10.5 18.5t-30.5 6.5q-27 0 -59 -11l-15 44q39 18 81 18q47 0 73.5 -20t26.5 -50q0 -23 -10.5 -37t-31.5 -32q-17 -13 -26 -24.5t-9 -27.5v-17z" />
    <glyph glyph-name="uni1EEE" unicode="&#x1eee;" horiz-adv-x="731" 
d="M766 838v-27q0 -60 -31 -98t-87 -49v-385q0 -141 -72 -214t-210 -73q-140 0 -211.5 72.5t-71.5 214.5v433h81v-440q0 -104 51 -157t151 -53q99 0 149.5 53t50.5 157v440h24q56 1 80 26t24 85v15h72zM227.5 879.5q24.5 30.5 65.5 30.5q21 0 40 -8.5t45 -24.5
q21 -13 33.5 -19t24.5 -6q22 0 34.5 16t12.5 39h45q0 -55 -24.5 -85.5t-65.5 -30.5q-21 0 -40 8.5t-45 24.5q-21 13 -33.5 19t-24.5 6q-22 0 -34.5 -16t-12.5 -39h-45q0 55 24.5 85.5z" />
    <glyph glyph-name="uni1EEF" unicode="&#x1eef;" horiz-adv-x="591" 
d="M620 636v-26q0 -63 -31.5 -103t-89.5 -49v-458h-79v87q-24 -46 -67 -70t-97 -24q-89 0 -135 50t-46 148v312h81v-310q0 -68 28 -100t85 -32q67 0 108 43.5t41 114.5v284h23q57 0 82 27.5t25 90.5v15h72zM150.5 700q24.5 30 65.5 30q21 0 40 -8.5t45 -24.5
q21 -13 33.5 -19t24.5 -6q22 0 34.5 16t12.5 39h45q0 -55 -24.5 -85t-65.5 -30q-21 0 -40 8.5t-45 24.5q-21 13 -33.5 19t-24.5 6q-22 0 -34.5 -16t-12.5 -39h-45q0 55 24.5 85z" />
    <glyph glyph-name="uni1EF0" unicode="&#x1ef0;" horiz-adv-x="731" 
d="M766 838v-27q0 -60 -31 -98t-87 -49v-385q0 -141 -72 -214t-210 -73q-140 0 -211.5 72.5t-71.5 214.5v433h81v-440q0 -104 51 -157t151 -53q99 0 149.5 53t50.5 157v440h24q56 1 80 26t24 85v15h72zM319 -95h93v-89h-93v89z" />
    <glyph glyph-name="uni1EF1" unicode="&#x1ef1;" horiz-adv-x="591" 
d="M620 636v-26q0 -63 -31.5 -103t-89.5 -49v-458h-79v87q-24 -46 -67 -70t-97 -24q-89 0 -135 50t-46 148v312h81v-310q0 -68 28 -100t85 -32q67 0 108 43.5t41 114.5v284h23q57 0 82 27.5t25 90.5v15h72zM242 -95h93v-89h-93v89z" />
    <glyph glyph-name="Ygrave" unicode="&#x1ef2;" horiz-adv-x="607" 
d="M624 712l-280 -424v-288h-82v289l-280 423h96l226 -350l226 350h94zM274 773l-134 153h89l102 -153h-57z" />
    <glyph glyph-name="ygrave" unicode="&#x1ef3;" horiz-adv-x="531" 
d="M520 503l-235 -549q-37 -86 -93 -126t-138 -55l-17 63q71 16 107.5 42.5t60.5 81.5l20 45l-213 498h85l170 -415l172 415h81zM237 568l-137 204h94l100 -204h-57z" />
    <glyph glyph-name="uni1EF4" unicode="&#x1ef4;" horiz-adv-x="607" 
d="M624 712l-280 -424v-288h-82v289l-280 423h96l226 -350l226 350h94zM256 -95h93v-89h-93v89z" />
    <glyph glyph-name="uni1EF5" unicode="&#x1ef5;" horiz-adv-x="531" 
d="M520 503l-235 -549q-37 -86 -93 -126t-138 -55l-17 63q71 16 107.5 42.5t60.5 81.5l20 45l-213 498h85l170 -415l172 415h81zM354 -95h93v-89h-93v89z" />
    <glyph glyph-name="uni1EF6" unicode="&#x1ef6;" horiz-adv-x="607" 
d="M624 712l-280 -424v-288h-82v289l-280 423h96l226 -350l226 350h94zM330 773h-54v18q0 17 10.5 26.5t30.5 20.5q15 8 21 13t6 12q0 9 -11 14t-30 5q-30 0 -62 -12l-14 43q39 17 82 17q46 0 72.5 -17.5t26.5 -46.5q0 -20 -12 -31t-34 -21q-17 -9 -24.5 -15t-7.5 -16v-10z
" />
    <glyph glyph-name="uni1EF7" unicode="&#x1ef7;" horiz-adv-x="531" 
d="M520 503l-235 -549q-37 -86 -93 -126t-138 -55l-17 63q71 16 107.5 42.5t60.5 81.5l20 45l-213 498h85l170 -415l172 415h81zM294 568h-53v28q0 20 10 34.5t29 32.5q14 14 19.5 21t5.5 16q0 12 -10.5 18.5t-30.5 6.5q-27 0 -59 -11l-15 44q39 18 81 18q47 0 73.5 -20
t26.5 -50q0 -23 -10.5 -37t-31.5 -32q-17 -13 -26 -24.5t-9 -27.5v-17z" />
    <glyph glyph-name="uni1EF8" unicode="&#x1ef8;" horiz-adv-x="607" 
d="M624 712l-280 -424v-288h-82v289l-280 423h96l226 -350l226 350h94zM164.5 879.5q24.5 30.5 65.5 30.5q21 0 40 -8.5t45 -24.5q21 -13 33.5 -19t24.5 -6q22 0 34.5 16t12.5 39h45q0 -55 -24.5 -85.5t-65.5 -30.5q-21 0 -40 8.5t-45 24.5q-21 13 -33.5 19t-24.5 6
q-22 0 -34.5 -16t-12.5 -39h-45q0 55 24.5 85.5z" />
    <glyph glyph-name="uni1EF9" unicode="&#x1ef9;" horiz-adv-x="531" 
d="M520 503l-235 -549q-37 -86 -93 -126t-138 -55l-17 63q71 16 107.5 42.5t60.5 81.5l20 45l-213 498h85l170 -415l172 415h81zM127.5 700q24.5 30 65.5 30q21 0 40 -8.5t45 -24.5q21 -13 33.5 -19t24.5 -6q22 0 34.5 16t12.5 39h45q0 -55 -24.5 -85t-65.5 -30
q-21 0 -40 8.5t-45 24.5q-21 13 -33.5 19t-24.5 6q-22 0 -34.5 -16t-12.5 -39h-45q0 55 24.5 85z" />
    <glyph glyph-name="dong" unicode="&#x20ab;" horiz-adv-x="600" 
d="M575 563h-74v-563h-81v89q-22 -46 -62 -70.5t-93 -24.5q-59 0 -105.5 30.5t-73.5 88.5t-27 137t26.5 136t73.5 86.5t106 29.5q52 0 92 -24t62 -69v154h-152v57h152v92h82v-92h74v-57zM384.5 111.5q35.5 49.5 35.5 136.5t-35.5 136.5t-102.5 49.5q-65 0 -102.5 -48.5
t-37.5 -135.5q0 -88 38 -138t102 -50q67 0 102.5 49.5zM76 -140v57h425v-57h-425z" />
    <glyph glyph-name="eight.dnom" horiz-adv-x="380" 
d="M326.5 180.5q23.5 -27.5 23.5 -65.5q0 -56 -42.5 -87.5t-117.5 -31.5q-76 0 -118.5 31.5t-42.5 87.5q0 38 23.5 65.5t62.5 39.5q-35 12 -55.5 38.5t-20.5 59.5q0 52 40.5 82.5t110.5 30.5q69 0 109.5 -30.5t40.5 -82.5q0 -34 -21 -61t-56 -38q40 -11 63.5 -38.5z
M130 358.5q-21 -17.5 -21 -48.5q0 -28 20.5 -46.5t60.5 -25.5q40 7 60.5 25.5t20.5 46.5q0 31 -21 48.5t-60 17.5t-60 -17.5zM258 69q23 18 23 51q0 31 -22 48.5t-69 25.5q-47 -7 -69 -25t-22 -49q0 -33 22.5 -51t68.5 -18q45 0 68 18z" />
    <glyph glyph-name="eight.numr" horiz-adv-x="380" 
d="M326.5 465.5q23.5 -27.5 23.5 -65.5q0 -56 -42.5 -87.5t-117.5 -31.5q-76 0 -118.5 31.5t-42.5 87.5q0 38 23.5 65.5t62.5 39.5q-35 12 -55.5 38.5t-20.5 59.5q0 52 40.5 82.5t110.5 30.5q69 0 109.5 -30.5t40.5 -82.5q0 -34 -21 -61t-56 -38q40 -11 63.5 -38.5z
M130 643.5q-21 -17.5 -21 -48.5q0 -28 20.5 -46.5t60.5 -25.5q40 7 60.5 25.5t20.5 46.5q0 31 -21 48.5t-60 17.5t-60 -17.5zM258 354q23 18 23 51q0 31 -22 48.5t-69 25.5q-47 -7 -69 -25t-22 -49q0 -33 22.5 -51t68.5 -18q45 0 68 18z" />
    <glyph glyph-name="gravecomb.case" 
d="M-177 773l-134 153h89l102 -153h-57z" />
    <glyph glyph-name="acutecomb.case" 
d="M-120 773h-57l102 153h89z" />
    <glyph glyph-name="uni0302.case" 
d="M-222 773h-74l120 153h55l120 -153h-74l-73 104z" />
    <glyph glyph-name="uni0306.case" 
d="M-248 810.5q-43 25.5 -65 81.5l51 22q23 -40 50 -55.5t64 -15.5t63.5 15.5t49.5 55.5l51 -22q-22 -56 -65 -81.5t-99 -25.5q-57 0 -100 25.5z" />
    <glyph glyph-name="tildecomb.case" 
d="M-286.5 879.5q24.5 30.5 65.5 30.5q21 0 40 -8.5t45 -24.5q21 -13 33.5 -19t24.5 -6q22 0 34.5 16t12.5 39h45q0 -55 -24.5 -85.5t-65.5 -30.5q-21 0 -40 8.5t-45 24.5q-21 13 -33.5 19t-24.5 6q-22 0 -34.5 -16t-12.5 -39h-45q0 55 24.5 85.5z" />
    <glyph glyph-name="hookabovecomb.case" 
d="M-121 773h-54v18q0 17 10.5 26.5t30.5 20.5q15 8 21 13t6 12q0 9 -11 14t-30 5q-30 0 -62 -12l-14 43q39 17 82 17q46 0 72.5 -17.5t26.5 -46.5q0 -20 -12 -31t-34 -21q-17 -9 -24.5 -15t-7.5 -16v-10z" />
    <glyph glyph-name="uni03060301" 
d="M-121 661h-55l101 143h86zM-248 577.5q-43 25.5 -65 81.5l47 20q23 -40 51.5 -56t66.5 -16t66 16t51 56l47 -20q-22 -56 -65 -81.5t-99 -25.5q-57 0 -100 25.5z" />
    <glyph glyph-name="uni03060300" 
d="M-176 661l-132 143h86l101 -143h-55zM-248 577.5q-43 25.5 -65 81.5l47 20q23 -40 51.5 -56t66.5 -16t66 16t51 56l47 -20q-22 -56 -65 -81.5t-99 -25.5q-57 0 -100 25.5z" />
    <glyph glyph-name="uni03060309" 
d="M-121 661h-54v17q0 17 11.5 26t31.5 18q13 6 19 10t6 10q0 8 -11 13.5t-30 5.5q-31 0 -62 -13l-14 44q42 17 82 17q46 0 72.5 -17.5t26.5 -46.5q0 -18 -11 -27t-34 -20q-16 -7 -24.5 -13t-8.5 -15v-9zM-248 577.5q-43 25.5 -65 81.5l47 20q23 -40 51.5 -56t66.5 -16
t66 16t51 56l47 -20q-22 -56 -65 -81.5t-99 -25.5q-57 0 -100 25.5z" />
    <glyph glyph-name="uni03060303" 
d="M-286 783.5q25 28.5 65 28.5q20 0 38.5 -7.5t46.5 -22.5q21 -12 33.5 -17.5t24.5 -5.5q22 0 34.5 14.5t12.5 35.5h45q0 -47 -24.5 -75.5t-65.5 -28.5q-20 0 -38.5 7.5t-46.5 22.5q-23 12 -34.5 17t-23.5 5q-22 0 -34.5 -14t-12.5 -35h-45q0 47 25 75.5zM-248 577.5
q-43 25.5 -65 81.5l47 20q23 -40 51.5 -56t66.5 -16t66 16t51 56l47 -20q-22 -56 -65 -81.5t-99 -25.5q-57 0 -100 25.5z" />
    <glyph glyph-name="uni03020301" 
d="M-13 661h-50l92 143h86zM-222 557h-74l120 148h55l120 -148h-74l-73 100z" />
    <glyph glyph-name="uni03020300" 
d="M-20 661l-113 143h85l78 -143h-50zM-222 557h-74l120 148h55l120 -148h-74l-73 100z" />
    <glyph glyph-name="uni03020309" 
d="M-10 661h-54v17q0 17 11.5 26t31.5 18q13 6 19 10t6 10q0 8 -11 13.5t-30 5.5q-31 0 -62 -13l-14 44q42 17 82 17q46 0 73 -17.5t27 -46.5q0 -18 -11.5 -27t-34.5 -20q-16 -7 -24.5 -13t-8.5 -15v-9zM-222 557h-74l120 148h55l120 -148h-74l-73 100z" />
    <glyph glyph-name="uni03020303" 
d="M-286 792q25 28 65 28q21 0 39.5 -6.5t45.5 -18.5q15 -7 30.5 -12.5t27.5 -5.5q22 0 34.5 13t12.5 31h45q0 -43 -25 -71t-65 -28q-21 0 -39.5 6.5t-45.5 18.5q-15 7 -30.5 12.5t-27.5 5.5q-22 0 -34.5 -13.5t-12.5 -31.5h-45q0 44 25 72zM-222 557h-74l120 148h55
l120 -148h-74l-73 100z" />
    <glyph glyph-name="uni03060301.case" 
d="M-121 877h-55l101 142h86zM-248 793.5q-43 25.5 -65 81.5l47 20q23 -41 51.5 -57t66.5 -16q37 0 65.5 16.5t51.5 56.5l47 -20q-22 -56 -65 -81.5t-99 -25.5q-57 0 -100 25.5z" />
    <glyph glyph-name="uni03060300.case" 
d="M-176 877l-132 142h86l101 -142h-55zM-248 793.5q-43 25.5 -65 81.5l47 20q23 -41 51.5 -57t66.5 -16q37 0 65.5 16.5t51.5 56.5l47 -20q-22 -56 -65 -81.5t-99 -25.5q-57 0 -100 25.5z" />
    <glyph glyph-name="uni03060309.case" 
d="M-121 877h-54v17q0 17 11.5 26t31.5 18q13 6 19 10t6 10q0 9 -11 14t-30 5q-30 0 -62 -12l-14 42q41 18 82 18q46 0 72.5 -17.5t26.5 -46.5q0 -18 -11 -27t-34 -20q-16 -7 -24.5 -13t-8.5 -15v-9zM-248 793.5q-43 25.5 -65 81.5l47 20q23 -41 51.5 -57t66.5 -16
q37 0 65.5 16.5t51.5 56.5l47 -20q-22 -56 -65 -81.5t-99 -25.5q-57 0 -100 25.5z" />
    <glyph glyph-name="uni03060303.case" 
d="M-286.5 998.5q24.5 28.5 65.5 28.5q20 0 38.5 -7.5t46.5 -22.5q23 -12 34.5 -17t23.5 -5q22 0 34.5 14t12.5 35h45q0 -46 -25 -75t-65 -29q-20 0 -38.5 7.5t-46.5 22.5q-21 12 -33.5 17.5t-24.5 5.5q-22 0 -34.5 -14.5t-12.5 -35.5h-45q0 47 24.5 75.5zM-248 793.5
q-43 25.5 -65 81.5l47 20q23 -41 51.5 -57t66.5 -16q37 0 65.5 16.5t51.5 56.5l47 -20q-22 -56 -65 -81.5t-99 -25.5q-57 0 -100 25.5z" />
    <glyph glyph-name="uni03020301.case" 
d="M-13 877h-50l92 142h86zM-222 773h-74l120 148h55l120 -148h-74l-73 100z" />
    <glyph glyph-name="uni03020300.case" 
d="M-20 877l-113 142h85l78 -142h-50zM-222 773h-74l120 148h55l120 -148h-74l-73 100z" />
    <glyph glyph-name="uni03020309.case" 
d="M-10 877h-54v17q0 17 11.5 26t31.5 18q13 6 19 10t6 10q0 9 -11 14t-30 5q-30 0 -62 -12l-14 42q41 18 82 18q46 0 73 -17.5t27 -46.5q0 -18 -11.5 -27t-34.5 -20q-16 -7 -24.5 -13t-8.5 -15v-9zM-222 773h-74l120 148h55l120 -148h-74l-73 100z" />
    <glyph glyph-name="uni03020303.case" 
d="M-286 1007.5q25 27.5 65 27.5q21 0 39.5 -6.5t45.5 -18.5q15 -7 30.5 -12.5t27.5 -5.5q22 0 34.5 13.5t12.5 31.5h45q0 -43 -25 -71.5t-65 -28.5q-21 0 -39.5 6.5t-45.5 18.5q-20 10 -33 14.5t-25 4.5q-22 0 -34.5 -13.5t-12.5 -31.5h-45q0 44 25 71.5zM-222 773h-74
l120 148h55l120 -148h-74l-73 100z" />
    <hkern g1="Abreve,uni1EA0,uni1EA2,uni1EA4,uni1EA6,uni1EA8,uni1EAA,uni1EAC,uni1EAE,uni1EB0,uni1EB2,uni1EB4,uni1EB6"
	g2="uni1ECC,uni1ECE,uni1ED0,uni1ED2,uni1ED4,uni1ED6,uni1ED8,uni1EDA,uni1EDC,uni1EDE,uni1EE0,uni1EE2"
	k="24" />
    <hkern g1="Abreve,uni1EA0,uni1EA2,uni1EA4,uni1EA6,uni1EA8,uni1EAA,uni1EAC,uni1EAE,uni1EB0,uni1EB2,uni1EB4,uni1EB6"
	g2="T"
	k="83" />
    <hkern g1="Abreve,uni1EA0,uni1EA2,uni1EA4,uni1EA6,uni1EA8,uni1EAA,uni1EAC,uni1EAE,uni1EB0,uni1EB2,uni1EB4,uni1EB6"
	g2="U,uni1EE4,uni1EE6,uni1EE8,uni1EEA,uni1EEC,uni1EEE,uni1EF0"
	k="5" />
    <hkern g1="Abreve,uni1EA0,uni1EA2,uni1EA4,uni1EA6,uni1EA8,uni1EAA,uni1EAC,uni1EAE,uni1EB0,uni1EB2,uni1EB4,uni1EB6"
	g2="Ygrave,uni1EF4,uni1EF6,uni1EF8"
	k="78" />
    <hkern g1="Abreve,uni1EA0,uni1EA2,uni1EA4,uni1EA6,uni1EA8,uni1EAA,uni1EAC,uni1EAE,uni1EB0,uni1EB2,uni1EB4,uni1EB6"
	g2="hyphen"
	k="15" />
    <hkern g1="Abreve,uni1EA0,uni1EA2,uni1EA4,uni1EA6,uni1EA8,uni1EAA,uni1EAC,uni1EAE,uni1EB0,uni1EB2,uni1EB4,uni1EB6"
	g2="ygrave,uni1EF5,uni1EF7,uni1EF9"
	k="23" />
    <hkern g1="uni1EB8,uni1EBA,uni1EBC,uni1EBE,uni1EC0,uni1EC2,uni1EC4,uni1EC6"
	g2="uni1ECC,uni1ECE,uni1ED0,uni1ED2,uni1ED4,uni1ED6,uni1ED8,uni1EDA,uni1EDC,uni1EDE,uni1EE0,uni1EE2"
	k="4" />
    <hkern g1="uni1EB8,uni1EBA,uni1EBC,uni1EBE,uni1EC0,uni1EC2,uni1EC4,uni1EC6"
	g2="T"
	k="12" />
    <hkern g1="uni1EB8,uni1EBA,uni1EBC,uni1EBE,uni1EC0,uni1EC2,uni1EC4,uni1EC6"
	g2="Ygrave,uni1EF4,uni1EF6,uni1EF8"
	k="7" />
    <hkern g1="uni1EB8,uni1EBA,uni1EBC,uni1EBE,uni1EC0,uni1EC2,uni1EC4,uni1EC6"
	g2="hyphen"
	k="1" />
    <hkern g1="uni1EB8,uni1EBA,uni1EBC,uni1EBE,uni1EC0,uni1EC2,uni1EC4,uni1EC6"
	g2="Abreve,uni1EA0,uni1EA2,uni1EA4,uni1EA6,uni1EA8,uni1EAA,uni1EAC,uni1EAE,uni1EB0,uni1EB2,uni1EB4,uni1EB6"
	k="14" />
    <hkern g1="F"
	g2="uni1ECC,uni1ECE,uni1ED0,uni1ED2,uni1ED4,uni1ED6,uni1ED8,uni1EDA,uni1EDC,uni1EDE,uni1EE0,uni1EE2"
	k="16" />
    <hkern g1="F"
	g2="T"
	k="-2" />
    <hkern g1="F"
	g2="Ygrave,uni1EF4,uni1EF6,uni1EF8"
	k="5" />
    <hkern g1="F"
	g2="hyphen"
	k="6" />
    <hkern g1="F"
	g2="Abreve,uni1EA0,uni1EA2,uni1EA4,uni1EA6,uni1EA8,uni1EAA,uni1EAC,uni1EAE,uni1EB0,uni1EB2,uni1EB4,uni1EB6"
	k="63" />
    <hkern g1="F"
	g2="abreve,uni1EA1,uni1EA3,uni1EA5,uni1EA7,uni1EA9,uni1EAB,uni1EAD,uni1EAF,uni1EB1,uni1EB3,uni1EB5,uni1EB7,uni1EB9,uni1EBB,uni1EBD,uni1EBF,uni1EC1,uni1EC3,uni1EC5,uni1EC7,uni1ECD,uni1ECF,uni1ED1,uni1ED3,uni1ED5,uni1ED7,uni1ED9,uni1EDB,uni1EDD,uni1EDF,uni1EE1,uni1EE3"
	k="10" />
    <hkern g1="F"
	g2="uni1EE5,uni1EE7,uni1EE9,uni1EEB,uni1EED,uni1EEF,uni1EF1"
	k="10" />
    <hkern g1="uni1ECC,uni1ECE,uni1ED0,uni1ED2,uni1ED4,uni1ED6,uni1ED8,uni1EDA,uni1EDC,uni1EDE,uni1EE0,uni1EE2"
	g2="T"
	k="44" />
    <hkern g1="uni1ECC,uni1ECE,uni1ED0,uni1ED2,uni1ED4,uni1ED6,uni1ED8,uni1EDA,uni1EDC,uni1EDE,uni1EE0,uni1EE2"
	g2="Ygrave,uni1EF4,uni1EF6,uni1EF8"
	k="44" />
    <hkern g1="uni1ECC,uni1ECE,uni1ED0,uni1ED2,uni1ED4,uni1ED6,uni1ED8,uni1EDA,uni1EDC,uni1EDE,uni1EE0,uni1EE2"
	g2="Abreve,uni1EA0,uni1EA2,uni1EA4,uni1EA6,uni1EA8,uni1EAA,uni1EAC,uni1EAE,uni1EB0,uni1EB2,uni1EB4,uni1EB6"
	k="16" />
    <hkern g1="T"
	g2="uni1ECC,uni1ECE,uni1ED0,uni1ED2,uni1ED4,uni1ED6,uni1ED8,uni1EDA,uni1EDC,uni1EDE,uni1EE0,uni1EE2"
	k="44" />
    <hkern g1="T"
	g2="Ygrave,uni1EF4,uni1EF6,uni1EF8"
	k="-9" />
    <hkern g1="T"
	g2="hyphen"
	k="47" />
    <hkern g1="T"
	g2="ygrave,uni1EF5,uni1EF7,uni1EF9"
	k="73" />
    <hkern g1="T"
	g2="Abreve,uni1EA0,uni1EA2,uni1EA4,uni1EA6,uni1EA8,uni1EAA,uni1EAC,uni1EAE,uni1EB0,uni1EB2,uni1EB4,uni1EB6"
	k="83" />
    <hkern g1="T"
	g2="abreve,uni1EA1,uni1EA3,uni1EA5,uni1EA7,uni1EA9,uni1EAB,uni1EAD,uni1EAF,uni1EB1,uni1EB3,uni1EB5,uni1EB7,uni1EB9,uni1EBB,uni1EBD,uni1EBF,uni1EC1,uni1EC3,uni1EC5,uni1EC7,uni1ECD,uni1ECF,uni1ED1,uni1ED3,uni1ED5,uni1ED7,uni1ED9,uni1EDB,uni1EDD,uni1EDF,uni1EE1,uni1EE3"
	k="77" />
    <hkern g1="T"
	g2="uni1EE5,uni1EE7,uni1EE9,uni1EEB,uni1EED,uni1EEF,uni1EF1"
	k="73" />
    <hkern g1="U,uni1EE4,uni1EE6"
	g2="Abreve,uni1EA0,uni1EA2,uni1EA4,uni1EA6,uni1EA8,uni1EAA,uni1EAC,uni1EAE,uni1EB0,uni1EB2,uni1EB4,uni1EB6"
	k="5" />
    <hkern g1="uni1EE8,uni1EEA,uni1EEC,uni1EEE,uni1EF0"
	g2="T"
	k="-33" />
    <hkern g1="uni1EE8,uni1EEA,uni1EEC,uni1EEE,uni1EF0"
	g2="Ygrave,uni1EF4,uni1EF6,uni1EF8"
	k="-40" />
    <hkern g1="uni1EE8,uni1EEA,uni1EEC,uni1EEE,uni1EF0"
	g2="Abreve,uni1EA0,uni1EA2,uni1EA4,uni1EA6,uni1EA8,uni1EAA,uni1EAC,uni1EAE,uni1EB0,uni1EB2,uni1EB4,uni1EB6"
	k="1" />
    <hkern g1="Ygrave,uni1EF4,uni1EF6,uni1EF8"
	g2="uni1ECC,uni1ECE,uni1ED0,uni1ED2,uni1ED4,uni1ED6,uni1ED8,uni1EDA,uni1EDC,uni1EDE,uni1EE0,uni1EE2"
	k="44" />
    <hkern g1="Ygrave,uni1EF4,uni1EF6,uni1EF8"
	g2="T"
	k="-16" />
    <hkern g1="Ygrave,uni1EF4,uni1EF6,uni1EF8"
	g2="Ygrave,uni1EF4,uni1EF6,uni1EF8"
	k="-3" />
    <hkern g1="Ygrave,uni1EF4,uni1EF6,uni1EF8"
	g2="hyphen"
	k="47" />
    <hkern g1="Ygrave,uni1EF4,uni1EF6,uni1EF8"
	g2="ygrave,uni1EF5,uni1EF7,uni1EF9"
	k="68" />
    <hkern g1="Ygrave,uni1EF4,uni1EF6,uni1EF8"
	g2="Abreve,uni1EA0,uni1EA2,uni1EA4,uni1EA6,uni1EA8,uni1EAA,uni1EAC,uni1EAE,uni1EB0,uni1EB2,uni1EB4,uni1EB6"
	k="78" />
    <hkern g1="Ygrave,uni1EF4,uni1EF6,uni1EF8"
	g2="abreve,uni1EA1,uni1EA3,uni1EA5,uni1EA7,uni1EA9,uni1EAB,uni1EAD,uni1EAF,uni1EB1,uni1EB3,uni1EB5,uni1EB7,uni1EB9,uni1EBB,uni1EBD,uni1EBF,uni1EC1,uni1EC3,uni1EC5,uni1EC7,uni1ECD,uni1ECF,uni1ED1,uni1ED3,uni1ED5,uni1ED7,uni1ED9,uni1EDB,uni1EDD,uni1EDF,uni1EE1,uni1EE3"
	k="77" />
    <hkern g1="Ygrave,uni1EF4,uni1EF6,uni1EF8"
	g2="uni1EE5,uni1EE7,uni1EE9,uni1EEB,uni1EED,uni1EEF,uni1EF1"
	k="73" />
    <hkern g1="hyphen"
	g2="Abreve,uni1EA0,uni1EA2,uni1EA4,uni1EA6,uni1EA8,uni1EAA,uni1EAC,uni1EAE,uni1EB0,uni1EB2,uni1EB4,uni1EB6"
	k="15" />
    <hkern g1="hyphen"
	g2="Ygrave,uni1EF4,uni1EF6,uni1EF8"
	k="47" />
    <hkern g1="hyphen"
	g2="abreve,uni1EA1,uni1EA3,uni1EA5,uni1EA7,uni1EA9,uni1EAB,uni1EAD,uni1EAF,uni1EB1,uni1EB3,uni1EB5,uni1EB7,uni1EB9,uni1EBB,uni1EBD,uni1EBF,uni1EC1,uni1EC3,uni1EC5,uni1EC7,uni1ECD,uni1ECF,uni1ED1,uni1ED3,uni1ED5,uni1ED7,uni1ED9,uni1EDB,uni1EDD,uni1EDF,uni1EE1,uni1EE3"
	k="-15" />
    <hkern g1="hyphen"
	g2="ygrave,uni1EF5,uni1EF7,uni1EF9"
	k="15" />
    <hkern g1="hyphen"
	g2="T"
	k="47" />
    <hkern g1="uni1EB9,uni1EBB,uni1EBD,uni1EBF,uni1EC1,uni1EC3,uni1EC5,uni1EC7"
	g2="hyphen"
	k="-11" />
    <hkern g1="uni1EB9,uni1EBB,uni1EBD,uni1EBF,uni1EC1,uni1EC3,uni1EC5,uni1EC7"
	g2="ygrave,uni1EF5,uni1EF7,uni1EF9"
	k="6" />
    <hkern g1="uni1ECD,uni1ECF,uni1ED1,uni1ED3,uni1ED5,uni1ED7,uni1ED9,uni1EDB,uni1EDD,uni1EDF,uni1EE1,uni1EE3"
	g2="hyphen"
	k="-15" />
    <hkern g1="uni1ECD,uni1ECF,uni1ED1,uni1ED3,uni1ED5,uni1ED7,uni1ED9,uni1EDB,uni1EDD,uni1EDF,uni1EE1,uni1EE3"
	g2="ygrave,uni1EF5,uni1EF7,uni1EF9"
	k="6" />
    <hkern g1="uni1EE9,uni1EEB,uni1EED,uni1EEF,uni1EF1"
	g2="hyphen"
	k="14" />
    <hkern g1="uni1EE9,uni1EEB,uni1EED,uni1EEF,uni1EF1"
	g2="ygrave,uni1EF5,uni1EF7,uni1EF9"
	k="-3" />
    <hkern g1="ygrave,uni1EF5,uni1EF7,uni1EF9"
	g2="hyphen"
	k="15" />
    <hkern g1="ygrave,uni1EF5,uni1EF7,uni1EF9"
	g2="abreve,uni1EA1,uni1EA3,uni1EA5,uni1EA7,uni1EA9,uni1EAB,uni1EAD,uni1EAF,uni1EB1,uni1EB3,uni1EB5,uni1EB7,uni1EB9,uni1EBB,uni1EBD,uni1EBF,uni1EC1,uni1EC3,uni1EC5,uni1EC7,uni1ECD,uni1ECF,uni1ED1,uni1ED3,uni1ED5,uni1ED7,uni1ED9,uni1EDB,uni1EDD,uni1EDF,uni1EE1,uni1EE3"
	k="6" />
  </font>
</defs></svg>
